Modules(Discontinued)/Simulate/filter_test.vcd
$date
	Fri Apr  5 21:52:08 2024
$end
$version
	Icarus Verilog
$end
$timescale
	1ns
$end
$scope module filter_tb $end
$var wire 1 ! coeffs_in_data_log_rdenb $end
$var wire 1 " delayLine_out $end
$var wire 1 # expected_ce_out $end
$var wire 1 $ i_signal_sample_data_log_rdenb $end
$var wire 16 % o_filtered_signal_sample_dataTable [15:0] $end
$var wire 1 & o_filtered_signal_sample_rdenb $end
$var wire 16 ' o_filtered_signal_sample_ref [15:0] $end
$var wire 16 ( rawData_coeffs_in [15:0] $end
$var wire 16 ) rawData_i_signal_sample [15:0] $end
$var wire 6 * rawData_write_address [5:0] $end
$var wire 1 + rawData_write_done $end
$var wire 1 , rawData_write_enable $end
$var wire 1 - rdEnb_phase_1 $end
$var wire 1 . rdEnb_phase_all $end
$var wire 1 / snkDone $end
$var wire 1 0 srcDone $end
$var wire 1 1 testFailure $end
$var wire 1 2 write_address_data_log_rdenb $end
$var wire 1 3 write_done_data_log_rdenb $end
$var wire 1 4 write_enable_data_log_rdenb $end
$var wire 1 5 phase_all_3 $end
$var wire 1 6 phase_all_2 $end
$var wire 1 7 phase_all_1 $end
$var wire 1 8 phase_all $end
$var wire 1 9 phase_1 $end
$var wire 16 : o_filtered_signal_sample_refTmp [15:0] $end
$var wire 16 ; o_filtered_signal_sample [15:0] $end
$var parameter 32 < MAX_ERROR_COUNT $end
$var parameter 32 = clk_high $end
$var parameter 32 > clk_hold $end
$var parameter 32 ? clk_low $end
$var parameter 32 @ clk_period $end
$var reg 1 A check1_Done $end
$var reg 1 B clk $end
$var reg 1 C clk_enable $end
$var reg 16 D coeffs_in [15:0] $end
$var reg 14 E coeffs_in_data_log_addr [13:0] $end
$var reg 1 F coeffs_in_data_log_done $end
$var reg 6 G counter [5:0] $end
$var reg 16 H holdData_coeffs_in [15:0] $end
$var reg 16 I holdData_i_signal_sample [15:0] $end
$var reg 6 J holdData_write_address [5:0] $end
$var reg 1 K holdData_write_done $end
$var reg 1 L holdData_write_enable $end
$var reg 16 M i_signal_sample [15:0] $end
$var reg 8 N i_signal_sample_data_log_addr [7:0] $end
$var reg 1 O i_signal_sample_data_log_done $end
$var reg 8 P o_filtered_signal_sample_addr [7:0] $end
$var reg 1 Q o_filtered_signal_sample_done $end
$var reg 1 R o_filtered_signal_sample_testFailure $end
$var reg 16 S regout [15:0] $end
$var reg 1 T rst $end
$var reg 1 U tb_enb $end
$var reg 1 V tbenb_dly $end
$var reg 6 W write_address [5:0] $end
$var reg 14 X write_address_data_log_addr [13:0] $end
$var reg 1 Y write_address_data_log_done $end
$var reg 1 Z write_done $end
$var reg 14 [ write_done_data_log_addr [13:0] $end
$var reg 1 \ write_done_data_log_done $end
$var reg 1 ] write_enable $end
$var reg 14 ^ write_enable_data_log_addr [13:0] $end
$var reg 1 _ write_enable_data_log_done $end
$var integer 32 ` o_filtered_signal_sample_errCnt [31:0] $end
$scope function abs $end
$var reg 16 a arg [15:0] $end
$upscope $end
$scope module uut $end
$var wire 1 B clk $end
$var wire 1 C clk_enable $end
$var wire 16 b coeffs_in [15:0] $end
$var wire 16 c i_signal_sample [15:0] $end
$var wire 1 T rst $end
$var wire 6 d write_address [5:0] $end
$var wire 1 Z write_done $end
$var wire 1 ] write_enable $end
$var wire 1 e w_write_enable $end
$var wire 1 f w_write_done $end
$var wire 6 g w_write_address [5:0] $end
$var wire 16 h w_coeffs_in [15:0] $end
$var wire 16 i product_mux [15:0] $end
$var wire 1 j phase_63 $end
$var wire 1 k phase_0 $end
$var wire 1 l o_write_done_edge $end
$var wire 1 m o_write_done_capture $end
$var wire 16 n o_filtered_signal_sample [15:0] $end
$var wire 16 o input_mux [15:0] $end
$var wire 6 p current_count [5:0] $end
$var wire 1 q control_phase_bar $end
$var wire 1 r coeffs_en $end
$scope module coeffs_control_inst $end
$var wire 1 B clk $end
$var wire 1 C clk_enable $end
$var wire 16 s product_mux [15:0] $end
$var wire 1 T rst $end
$var wire 1 e write_enable $end
$var wire 6 t write_address [5:0] $end
$var wire 6 u current_count [5:0] $end
$var wire 16 v coeffs_in [15:0] $end
$var wire 1 r coeffs_en $end
$var integer 32 w coeffs_regs_index [31:0] $end
$var integer 32 x coeffs_regs_reset_index [31:0] $end
$var integer 32 y coeffs_shadow_index [31:0] $end
$var integer 32 z coeffs_shadow_reset_index [31:0] $end
$scope begin gen_coeffs_assigned[0] $end
$var parameter 2 { i $end
$upscope $end
$scope begin gen_coeffs_assigned[1] $end
$var parameter 2 | i $end
$upscope $end
$scope begin gen_coeffs_assigned[2] $end
$var parameter 3 } i $end
$upscope $end
$scope begin gen_coeffs_assigned[3] $end
$var parameter 3 ~ i $end
$upscope $end
$scope begin gen_coeffs_assigned[4] $end
$var parameter 4 !" i $end
$upscope $end
$scope begin gen_coeffs_assigned[5] $end
$var parameter 4 "" i $end
$upscope $end
$scope begin gen_coeffs_assigned[6] $end
$var parameter 4 #" i $end
$upscope $end
$scope begin gen_coeffs_assigned[7] $end
$var parameter 4 $" i $end
$upscope $end
$scope begin gen_coeffs_assigned[8] $end
$var parameter 5 %" i $end
$upscope $end
$scope begin gen_coeffs_assigned[9] $end
$var parameter 5 &" i $end
$upscope $end
$scope begin gen_coeffs_assigned[10] $end
$var parameter 5 '" i $end
$upscope $end
$scope begin gen_coeffs_assigned[11] $end
$var parameter 5 (" i $end
$upscope $end
$scope begin gen_coeffs_assigned[12] $end
$var parameter 5 )" i $end
$upscope $end
$scope begin gen_coeffs_assigned[13] $end
$var parameter 5 *" i $end
$upscope $end
$scope begin gen_coeffs_assigned[14] $end
$var parameter 5 +" i $end
$upscope $end
$scope begin gen_coeffs_assigned[15] $end
$var parameter 5 ," i $end
$upscope $end
$scope begin gen_coeffs_assigned[16] $end
$var parameter 6 -" i $end
$upscope $end
$scope begin gen_coeffs_assigned[17] $end
$var parameter 6 ." i $end
$upscope $end
$scope begin gen_coeffs_assigned[18] $end
$var parameter 6 /" i $end
$upscope $end
$scope begin gen_coeffs_assigned[19] $end
$var parameter 6 0" i $end
$upscope $end
$scope begin gen_coeffs_assigned[20] $end
$var parameter 6 1" i $end
$upscope $end
$scope begin gen_coeffs_assigned[21] $end
$var parameter 6 2" i $end
$upscope $end
$scope begin gen_coeffs_assigned[22] $end
$var parameter 6 3" i $end
$upscope $end
$scope begin gen_coeffs_assigned[23] $end
$var parameter 6 4" i $end
$upscope $end
$scope begin gen_coeffs_assigned[24] $end
$var parameter 6 5" i $end
$upscope $end
$scope begin gen_coeffs_assigned[25] $end
$var parameter 6 6" i $end
$upscope $end
$scope begin gen_coeffs_assigned[26] $end
$var parameter 6 7" i $end
$upscope $end
$scope begin gen_coeffs_assigned[27] $end
$var parameter 6 8" i $end
$upscope $end
$scope begin gen_coeffs_assigned[28] $end
$var parameter 6 9" i $end
$upscope $end
$scope begin gen_coeffs_assigned[29] $end
$var parameter 6 :" i $end
$upscope $end
$scope begin gen_coeffs_assigned[30] $end
$var parameter 6 ;" i $end
$upscope $end
$scope begin gen_coeffs_assigned[31] $end
$var parameter 6 <" i $end
$upscope $end
$scope begin gen_coeffs_assigned[32] $end
$var parameter 7 =" i $end
$upscope $end
$scope begin gen_coeffs_assigned[33] $end
$var parameter 7 >" i $end
$upscope $end
$scope begin gen_coeffs_assigned[34] $end
$var parameter 7 ?" i $end
$upscope $end
$scope begin gen_coeffs_assigned[35] $end
$var parameter 7 @" i $end
$upscope $end
$scope begin gen_coeffs_assigned[36] $end
$var parameter 7 A" i $end
$upscope $end
$scope begin gen_coeffs_assigned[37] $end
$var parameter 7 B" i $end
$upscope $end
$scope begin gen_coeffs_assigned[38] $end
$var parameter 7 C" i $end
$upscope $end
$scope begin gen_coeffs_assigned[39] $end
$var parameter 7 D" i $end
$upscope $end
$scope begin gen_coeffs_assigned[40] $end
$var parameter 7 E" i $end
$upscope $end
$scope begin gen_coeffs_assigned[41] $end
$var parameter 7 F" i $end
$upscope $end
$scope begin gen_coeffs_assigned[42] $end
$var parameter 7 G" i $end
$upscope $end
$scope begin gen_coeffs_assigned[43] $end
$var parameter 7 H" i $end
$upscope $end
$scope begin gen_coeffs_assigned[44] $end
$var parameter 7 I" i $end
$upscope $end
$scope begin gen_coeffs_assigned[45] $end
$var parameter 7 J" i $end
$upscope $end
$scope begin gen_coeffs_assigned[46] $end
$var parameter 7 K" i $end
$upscope $end
$scope begin gen_coeffs_assigned[47] $end
$var parameter 7 L" i $end
$upscope $end
$scope begin gen_coeffs_assigned[48] $end
$var parameter 7 M" i $end
$upscope $end
$scope begin gen_coeffs_assigned[49] $end
$var parameter 7 N" i $end
$upscope $end
$scope begin gen_coeffs_assigned[50] $end
$var parameter 7 O" i $end
$upscope $end
$scope begin gen_coeffs_assigned[51] $end
$var parameter 7 P" i $end
$upscope $end
$scope begin gen_coeffs_assigned[52] $end
$var parameter 7 Q" i $end
$upscope $end
$scope begin gen_coeffs_assigned[53] $end
$var parameter 7 R" i $end
$upscope $end
$scope begin gen_coeffs_assigned[54] $end
$var parameter 7 S" i $end
$upscope $end
$scope begin gen_coeffs_assigned[55] $end
$var parameter 7 T" i $end
$upscope $end
$scope begin gen_coeffs_assigned[56] $end
$var parameter 7 U" i $end
$upscope $end
$scope begin gen_coeffs_assigned[57] $end
$var parameter 7 V" i $end
$upscope $end
$scope begin gen_coeffs_assigned[58] $end
$var parameter 7 W" i $end
$upscope $end
$scope begin gen_coeffs_assigned[59] $end
$var parameter 7 X" i $end
$upscope $end
$scope begin gen_coeffs_assigned[60] $end
$var parameter 7 Y" i $end
$upscope $end
$scope begin gen_coeffs_assigned[61] $end
$var parameter 7 Z" i $end
$upscope $end
$scope begin gen_coeffs_assigned[62] $end
$var parameter 7 [" i $end
$upscope $end
$scope begin gen_coeffs_assigned[63] $end
$var parameter 7 \" i $end
$upscope $end
$upscope $end
$scope module compute_inst $end
$var wire 1 B clk $end
$var wire 1 C clk_enable $end
$var wire 16 ]" product_mux [15:0] $end
$var wire 1 T rst $end
$var wire 33 ^" sign_extended_add [32:0] $end
$var wire 33 _" w_acc_out [32:0] $end
$var wire 33 `" sign_extended_product [32:0] $end
$var wire 31 a" product [30:0] $end
$var wire 1 j phase_63 $end
$var wire 1 k phase_0 $end
$var wire 16 b" output_typeconvert [15:0] $end
$var wire 32 c" mul_temp [31:0] $end
$var wire 16 d" input_mux [15:0] $end
$var wire 34 e" add_temp [33:0] $end
$var wire 33 f" acc_sum [32:0] $end
$var wire 33 g" acc_in [32:0] $end
$var reg 33 h" acc_final [32:0] $end
$var reg 33 i" acc_out [32:0] $end
$var reg 16 j" filtered_sample [15:0] $end
$upscope $end
$scope module counter_inst $end
$var wire 1 B clk $end
$var wire 1 C clk_enable $end
$var wire 1 T rst $end
$var reg 6 k" current_count [5:0] $end
$upscope $end
$scope module delay_pipeline_inst $end
$var wire 1 B clk $end
$var wire 6 l" current_count [5:0] $end
$var wire 16 m" i_signal_sample [15:0] $end
$var wire 16 n" input_mux [15:0] $end
$var wire 1 T rst $end
$var wire 1 j phase_63 $end
$var parameter 32 o" NUMBER_OF_PIPE $end
$var integer 32 p" pipe_index [31:0] $end
$var integer 32 q" pipe_reset_index [31:0] $end
$upscope $end
$scope module input_register_inst $end
$var wire 1 B clk $end
$var wire 1 C clk_enable $end
$var wire 16 r" i_coeffs_in [15:0] $end
$var wire 6 s" i_write_address [5:0] $end
$var wire 1 Z i_write_done $end
$var wire 1 ] i_write_enable $end
$var wire 1 T rst $end
$var reg 16 t" o_coeffs_in [15:0] $end
$var reg 6 u" o_write_address [5:0] $end
$var reg 1 f o_write_done $end
$var reg 1 e o_write_enable $end
$upscope $end
$scope module phase_check_inst $end
$var wire 1 C clk_enable $end
$var wire 1 q control_phase_bar $end
$var wire 6 v" current_count [5:0] $end
$var wire 1 j phase_63 $end
$var wire 1 k phase_0 $end
$upscope $end
$scope module write_done_capture_inst $end
$var wire 1 B clk $end
$var wire 1 C clk_enable $end
$var wire 1 r coeffs_en $end
$var wire 1 q i_control_phase_bar $end
$var wire 1 f i_write_done $end
$var wire 1 m o_write_done_capture $end
$var wire 1 j phase_63 $end
$var wire 1 T rst $end
$var wire 1 w" w_write_done_edge_bar $end
$var wire 1 x" w_write_done_short $end
$var wire 1 y" w_write_done_capture_in $end
$var reg 1 l o_write_done_edge $end
$var reg 1 z" r_phase_63 $end
$var reg 1 {" r_write_done_capture $end
$upscope $end
$upscope $end
$scope begin DataHoldRegister_temp_process2 $end
$upscope $end
$scope begin ceout_delayLine $end
$upscope $end
$scope begin slow_clock_enable $end
$upscope $end
$scope begin tb_enb_delay $end
$upscope $end
$scope task coeffs_in_data_log_task $end
$var reg 14 |" addr [13:0] $end
$var reg 1 }" clk $end
$var reg 1 ~" done $end
$var reg 1 !# rdenb $end
$var reg 1 "# reset $end
$upscope $end
$scope task i_signal_sample_data_log_task $end
$var reg 8 ## addr [7:0] $end
$var reg 1 $# clk $end
$var reg 1 %# done $end
$var reg 1 &# rdenb $end
$var reg 1 '# reset $end
$upscope $end
$scope task o_filtered_signal_sample_task $end
$var reg 8 (# addr [7:0] $end
$var reg 1 )# clk $end
$var reg 1 *# done $end
$var reg 1 +# rdenb $end
$var reg 1 ,# reset $end
$upscope $end
$scope task write_address_data_log_task $end
$var reg 14 -# addr [13:0] $end
$var reg 1 .# clk $end
$var reg 1 /# done $end
$var reg 1 0# rdenb $end
$var reg 1 1# reset $end
$upscope $end
$scope task write_done_data_log_task $end
$var reg 14 2# addr [13:0] $end
$var reg 1 3# clk $end
$var reg 1 4# done $end
$var reg 1 5# rdenb $end
$var reg 1 6# reset $end
$upscope $end
$scope task write_enable_data_log_task $end
$var reg 14 7# addr [13:0] $end
$var reg 1 8# clk $end
$var reg 1 9# done $end
$var reg 1 :# rdenb $end
$var reg 1 ;# reset $end
$upscope $end
$upscope $end
$enddefinitions $end
$comment Show the parameter values. $end
$dumpall
b1000000 o"
b111111 \"
b111110 ["
b111101 Z"
b111100 Y"
b111011 X"
b111010 W"
b111001 V"
b111000 U"
b110111 T"
b110110 S"
b110101 R"
b110100 Q"
b110011 P"
b110010 O"
b110001 N"
b110000 M"
b101111 L"
b101110 K"
b101101 J"
b101100 I"
b101011 H"
b101010 G"
b101001 F"
b101000 E"
b100111 D"
b100110 C"
b100101 B"
b100100 A"
b100011 @"
b100010 ?"
b100001 >"
b100000 ="
b11111 <"
b11110 ;"
b11101 :"
b11100 9"
b11011 8"
b11010 7"
b11001 6"
b11000 5"
b10111 4"
b10110 3"
b10101 2"
b10100 1"
b10011 0"
b10010 /"
b10001 ."
b10000 -"
b1111 ,"
b1110 +"
b1101 *"
b1100 )"
b1011 ("
b1010 '"
b1001 &"
b1000 %"
b111 $"
b110 #"
b101 ""
b100 !"
b11 ~
b10 }
b1 |
b0 {
b1010 @
b101 ?
b10 >
b101 =
b10000010 <
$end
#0
$dumpvars
1;#
x:#
09#
18#
b0 7#
16#
x5#
04#
13#
b0 2#
11#
x0#
0/#
1.#
b0 -#
1,#
x+#
0*#
1)#
b0 (#
1'#
x&#
0%#
1$#
b0 ##
1"#
x!#
0~"
1}"
b0 |"
0{"
xz"
0y"
0x"
1w"
b111111 v"
b0 u"
b0 t"
bx s"
bx r"
b1000000 q"
bx p"
b0 n"
bx m"
b111111 l"
b111111 k"
b0 j"
b0 i"
b0 h"
b0 g"
b0 f"
b0 e"
b0 d"
b0 c"
b0 b"
b0 a"
b0 `"
b0 _"
b0 ^"
b0 ]"
b1000000 z
bx y
b1000000 x
bx w
b0 v
b111111 u
b0 t
b0 s
0r
xq
b111111 p
b0 o
b0 n
0m
0l
0k
xj
b0 i
b0 h
b0 g
0f
0e
bx d
bx c
bx b
bx a
b0 `
0_
b0 ^
x]
0\
b0 [
xZ
0Y
b0 X
bx W
0V
0U
1T
b0 S
0R
0Q
b0 P
0O
b0 N
bx M
xL
xK
bx J
bx I
bx H
b1 G
0F
b0 E
bx D
xC
1B
0A
b0 ;
b0 :
09
08
07
06
05
04
03
02
01
00
0/
0.
0-
1,
0+
b0 *
b0 )
b1111111111111011 (
b0 '
0&
bx %
0$
0#
0"
0!
$end
#2
0z"
1q
0j
0C
b0 %
#5
0B
#10
b1000000 z
b1000000 x
b1000000 q"
0&#
0:#
05#
00#
0!#
0+#
1B
#15
0B
#20
b1000000 q"
b1000000 x
b1000000 z
1B
#22
1U
0T
#25
0B
#30
1$
1-
19
14
13
12
1!
1.
18
17
16
15
1V
b1111111111111011 H
b0 J
0K
1L
b0 I
0'#
0;#
06#
01#
0"#
0,#
1B
#32
1z"
0q
1j
1C
b0 M
b0 c
b0 m"
1]
0Z
b0 W
b0 d
b0 s"
b1111111111111011 D
b1111111111111011 b
b1111111111111011 r"
#35
0B
#40
0z"
1q
0j
1k
0$
0-
09
b10 G
b0 p
b0 u
b0 k"
b0 l"
b0 v"
b1111111111111011 h
b1111111111111011 v
b1111111111111011 t"
1e
b1111111111110000 (
b1 E
b1 |"
b1 *
b1 X
b1 -#
b1 [
b1 2#
b1 ^
b1 7#
b1 N
b1 ##
b0 p"
b1000000 w
1&#
1:#
15#
10#
1!#
1B
#42
b1111111111110000 D
b1111111111110000 b
b1111111111110000 r"
b1 W
b1 d
b1 s"
#45
0B
#50
0k
b11 G
b1111111111110000 H
b1 J
b1111111111110000 h
b1111111111110000 v
b1111111111110000 t"
b1 g
b1 t
b1 u"
b1 p
b1 u
b1 k"
b1 l"
b1 v"
b1111111111100110 (
b10 E
b10 |"
b10 *
b10 X
b10 -#
b10 [
b10 2#
b10 ^
b10 7#
b1000000 w
0&#
1B
#52
b1111111111100110 D
b1111111111100110 b
b1111111111100110 r"
b10 W
b10 d
b10 s"
#55
0B
#60
b100 G
b10 p
b10 u
b10 k"
b10 l"
b10 v"
b1111111111100110 h
b1111111111100110 v
b1111111111100110 t"
b10 g
b10 t
b10 u"
b10 J
b1111111111100110 H
b1111111111011100 (
b11 E
b11 |"
b11 *
b11 X
b11 -#
b11 [
b11 2#
b11 ^
b11 7#
b1000000 w
1B
#62
b1111111111011100 D
b1111111111011100 b
b1111111111011100 r"
b11 W
b11 d
b11 s"
#65
0B
#70
b101 G
b1111111111011100 H
b11 J
b1111111111011100 h
b1111111111011100 v
b1111111111011100 t"
b11 g
b11 t
b11 u"
b11 p
b11 u
b11 k"
b11 l"
b11 v"
b1111111111010101 (
b100 E
b100 |"
b100 *
b100 X
b100 -#
b100 [
b100 2#
b100 ^
b100 7#
b1000000 w
1B
#72
b1111111111010101 D
b1111111111010101 b
b1111111111010101 r"
b100 W
b100 d
b100 s"
#75
0B
#80
b110 G
b100 p
b100 u
b100 k"
b100 l"
b100 v"
b1111111111010101 h
b1111111111010101 v
b1111111111010101 t"
b100 g
b100 t
b100 u"
b100 J
b1111111111010101 H
b1111111111010011 (
b101 E
b101 |"
b101 *
b101 X
b101 -#
b101 [
b101 2#
b101 ^
b101 7#
b1000000 w
1B
#82
b1111111111010011 D
b1111111111010011 b
b1111111111010011 r"
b101 W
b101 d
b101 s"
#85
0B
#90
b111 G
b1111111111010011 H
b101 J
b1111111111010011 h
b1111111111010011 v
b1111111111010011 t"
b101 g
b101 t
b101 u"
b101 p
b101 u
b101 k"
b101 l"
b101 v"
b1111111111011100 (
b110 E
b110 |"
b110 *
b110 X
b110 -#
b110 [
b110 2#
b110 ^
b110 7#
b1000000 w
1B
#92
b1111111111011100 D
b1111111111011100 b
b1111111111011100 r"
b110 W
b110 d
b110 s"
#95
0B
#100
b1000 G
b110 p
b110 u
b110 k"
b110 l"
b110 v"
b1111111111011100 h
b1111111111011100 v
b1111111111011100 t"
b110 g
b110 t
b110 u"
b110 J
b1111111111011100 H
b1111111111110000 (
b111 E
b111 |"
b111 *
b111 X
b111 -#
b111 [
b111 2#
b111 ^
b111 7#
b1000000 w
1B
#102
b1111111111110000 D
b1111111111110000 b
b1111111111110000 r"
b111 W
b111 d
b111 s"
#105
0B
#110
b1001 G
b1111111111110000 H
b111 J
b1111111111110000 h
b1111111111110000 v
b1111111111110000 t"
b111 g
b111 t
b111 u"
b111 p
b111 u
b111 k"
b111 l"
b111 v"
b10011 (
b1000 E
b1000 |"
b1000 *
b1000 X
b1000 -#
b1000 [
b1000 2#
b1000 ^
b1000 7#
b1000000 w
1B
#112
b10011 D
b10011 b
b10011 r"
b1000 W
b1000 d
b1000 s"
#115
0B
#120
b1010 G
b1000 p
b1000 u
b1000 k"
b1000 l"
b1000 v"
b10011 h
b10011 v
b10011 t"
b1000 g
b1000 t
b1000 u"
b1000 J
b10011 H
b1000001 (
b1001 E
b1001 |"
b1001 *
b1001 X
b1001 -#
b1001 [
b1001 2#
b1001 ^
b1001 7#
b1000000 w
1B
#122
b1000001 D
b1000001 b
b1000001 r"
b1001 W
b1001 d
b1001 s"
#125
0B
#130
b1011 G
b1000001 H
b1001 J
b1000001 h
b1000001 v
b1000001 t"
b1001 g
b1001 t
b1001 u"
b1001 p
b1001 u
b1001 k"
b1001 l"
b1001 v"
b1110101 (
b1010 E
b1010 |"
b1010 *
b1010 X
b1010 -#
b1010 [
b1010 2#
b1010 ^
b1010 7#
b1000000 w
1B
#132
b1110101 D
b1110101 b
b1110101 r"
b1010 W
b1010 d
b1010 s"
#135
0B
#140
b1100 G
b1010 p
b1010 u
b1010 k"
b1010 l"
b1010 v"
b1110101 h
b1110101 v
b1110101 t"
b1010 g
b1010 t
b1010 u"
b1010 J
b1110101 H
b10100101 (
b1011 E
b1011 |"
b1011 *
b1011 X
b1011 -#
b1011 [
b1011 2#
b1011 ^
b1011 7#
b1000000 w
1B
#142
b10100101 D
b10100101 b
b10100101 r"
b1011 W
b1011 d
b1011 s"
#145
0B
#150
b1101 G
b10100101 H
b1011 J
b10100101 h
b10100101 v
b10100101 t"
b1011 g
b1011 t
b1011 u"
b1011 p
b1011 u
b1011 k"
b1011 l"
b1011 v"
b11000100 (
b1100 E
b1100 |"
b1100 *
b1100 X
b1100 -#
b1100 [
b1100 2#
b1100 ^
b1100 7#
b1000000 w
1B
#152
b11000100 D
b11000100 b
b11000100 r"
b1100 W
b1100 d
b1100 s"
#155
0B
#160
b1110 G
b1100 p
b1100 u
b1100 k"
b1100 l"
b1100 v"
b11000100 h
b11000100 v
b11000100 t"
b1100 g
b1100 t
b1100 u"
b1100 J
b11000100 H
b11000011 (
b1101 E
b1101 |"
b1101 *
b1101 X
b1101 -#
b1101 [
b1101 2#
b1101 ^
b1101 7#
b1000000 w
1B
#162
b11000011 D
b11000011 b
b11000011 r"
b1101 W
b1101 d
b1101 s"
#165
0B
#170
b1111 G
b11000011 H
b1101 J
b11000011 h
b11000011 v
b11000011 t"
b1101 g
b1101 t
b1101 u"
b1101 p
b1101 u
b1101 k"
b1101 l"
b1101 v"
b10011001 (
b1110 E
b1110 |"
b1110 *
b1110 X
b1110 -#
b1110 [
b1110 2#
b1110 ^
b1110 7#
b1000000 w
1B
#172
b10011001 D
b10011001 b
b10011001 r"
b1110 W
b1110 d
b1110 s"
#175
0B
#180
b10000 G
b1110 p
b1110 u
b1110 k"
b1110 l"
b1110 v"
b10011001 h
b10011001 v
b10011001 t"
b1110 g
b1110 t
b1110 u"
b1110 J
b10011001 H
b111111 (
b1111 E
b1111 |"
b1111 *
b1111 X
b1111 -#
b1111 [
b1111 2#
b1111 ^
b1111 7#
b1000000 w
1B
#182
b111111 D
b111111 b
b111111 r"
b1111 W
b1111 d
b1111 s"
#185
0B
#190
b10001 G
b111111 H
b1111 J
b111111 h
b111111 v
b111111 t"
b1111 g
b1111 t
b1111 u"
b1111 p
b1111 u
b1111 k"
b1111 l"
b1111 v"
b1111111110110111 (
b10000 E
b10000 |"
b10000 *
b10000 X
b10000 -#
b10000 [
b10000 2#
b10000 ^
b10000 7#
b1000000 w
1B
#192
b1111111110110111 D
b1111111110110111 b
b1111111110110111 r"
b10000 W
b10000 d
b10000 s"
#195
0B
#200
b10010 G
b10000 p
b10000 u
b10000 k"
b10000 l"
b10000 v"
b1111111110110111 h
b1111111110110111 v
b1111111110110111 t"
b10000 g
b10000 t
b10000 u"
b10000 J
b1111111110110111 H
b1111111100010001 (
b10001 E
b10001 |"
b10001 *
b10001 X
b10001 -#
b10001 [
b10001 2#
b10001 ^
b10001 7#
b1000000 w
1B
#202
b1111111100010001 D
b1111111100010001 b
b1111111100010001 r"
b10001 W
b10001 d
b10001 s"
#205
0B
#210
b10011 G
b1111111100010001 H
b10001 J
b1111111100010001 h
b1111111100010001 v
b1111111100010001 t"
b10001 g
b10001 t
b10001 u"
b10001 p
b10001 u
b10001 k"
b10001 l"
b10001 v"
b1111111001100010 (
b10010 E
b10010 |"
b10010 *
b10010 X
b10010 -#
b10010 [
b10010 2#
b10010 ^
b10010 7#
b1000000 w
1B
#212
b1111111001100010 D
b1111111001100010 b
b1111111001100010 r"
b10010 W
b10010 d
b10010 s"
#215
0B
#220
b10100 G
b10010 p
b10010 u
b10010 k"
b10010 l"
b10010 v"
b1111111001100010 h
b1111111001100010 v
b1111111001100010 t"
b10010 g
b10010 t
b10010 u"
b10010 J
b1111111001100010 H
b1111110111001101 (
b10011 E
b10011 |"
b10011 *
b10011 X
b10011 -#
b10011 [
b10011 2#
b10011 ^
b10011 7#
b1000000 w
1B
#222
b1111110111001101 D
b1111110111001101 b
b1111110111001101 r"
b10011 W
b10011 d
b10011 s"
#225
0B
#230
b10101 G
b1111110111001101 H
b10011 J
b1111110111001101 h
b1111110111001101 v
b1111110111001101 t"
b10011 g
b10011 t
b10011 u"
b10011 p
b10011 u
b10011 k"
b10011 l"
b10011 v"
b1111110101110110 (
b10100 E
b10100 |"
b10100 *
b10100 X
b10100 -#
b10100 [
b10100 2#
b10100 ^
b10100 7#
b1000000 w
1B
#232
b1111110101110110 D
b1111110101110110 b
b1111110101110110 r"
b10100 W
b10100 d
b10100 s"
#235
0B
#240
b10110 G
b10100 p
b10100 u
b10100 k"
b10100 l"
b10100 v"
b1111110101110110 h
b1111110101110110 v
b1111110101110110 t"
b10100 g
b10100 t
b10100 u"
b10100 J
b1111110101110110 H
b1111110110000010 (
b10101 E
b10101 |"
b10101 *
b10101 X
b10101 -#
b10101 [
b10101 2#
b10101 ^
b10101 7#
b1000000 w
1B
#242
b1111110110000010 D
b1111110110000010 b
b1111110110000010 r"
b10101 W
b10101 d
b10101 s"
#245
0B
#250
b10111 G
b1111110110000010 H
b10101 J
b1111110110000010 h
b1111110110000010 v
b1111110110000010 t"
b10101 g
b10101 t
b10101 u"
b10101 p
b10101 u
b10101 k"
b10101 l"
b10101 v"
b1111111000010010 (
b10110 E
b10110 |"
b10110 *
b10110 X
b10110 -#
b10110 [
b10110 2#
b10110 ^
b10110 7#
b1000000 w
1B
#252
b1111111000010010 D
b1111111000010010 b
b1111111000010010 r"
b10110 W
b10110 d
b10110 s"
#255
0B
#260
b11000 G
b10110 p
b10110 u
b10110 k"
b10110 l"
b10110 v"
b1111111000010010 h
b1111111000010010 v
b1111111000010010 t"
b10110 g
b10110 t
b10110 u"
b10110 J
b1111111000010010 H
b1111111100110101 (
b10111 E
b10111 |"
b10111 *
b10111 X
b10111 -#
b10111 [
b10111 2#
b10111 ^
b10111 7#
b1000000 w
1B
#262
b1111111100110101 D
b1111111100110101 b
b1111111100110101 r"
b10111 W
b10111 d
b10111 s"
#265
0B
#270
b11001 G
b1111111100110101 H
b10111 J
b1111111100110101 h
b1111111100110101 v
b1111111100110101 t"
b10111 g
b10111 t
b10111 u"
b10111 p
b10111 u
b10111 k"
b10111 l"
b10111 v"
b11101111 (
b11000 E
b11000 |"
b11000 *
b11000 X
b11000 -#
b11000 [
b11000 2#
b11000 ^
b11000 7#
b1000000 w
1B
#272
b11101111 D
b11101111 b
b11101111 r"
b11000 W
b11000 d
b11000 s"
#275
0B
#280
b11010 G
b11000 p
b11000 u
b11000 k"
b11000 l"
b11000 v"
b11101111 h
b11101111 v
b11101111 t"
b11000 g
b11000 t
b11000 u"
b11000 J
b11101111 H
b1100101010 (
b11001 E
b11001 |"
b11001 *
b11001 X
b11001 -#
b11001 [
b11001 2#
b11001 ^
b11001 7#
b1000000 w
1B
#282
b1100101010 D
b1100101010 b
b1100101010 r"
b11001 W
b11001 d
b11001 s"
#285
0B
#290
b11011 G
b1100101010 H
b11001 J
b1100101010 h
b1100101010 v
b1100101010 t"
b11001 g
b11001 t
b11001 u"
b11001 p
b11001 u
b11001 k"
b11001 l"
b11001 v"
b10111000010 (
b11010 E
b11010 |"
b11010 *
b11010 X
b11010 -#
b11010 [
b11010 2#
b11010 ^
b11010 7#
b1000000 w
1B
#292
b10111000010 D
b10111000010 b
b10111000010 r"
b11010 W
b11010 d
b11010 s"
#295
0B
#300
b11100 G
b11010 p
b11010 u
b11010 k"
b11010 l"
b11010 v"
b10111000010 h
b10111000010 v
b10111000010 t"
b11010 g
b11010 t
b11010 u"
b11010 J
b10111000010 H
b100001111111 (
b11011 E
b11011 |"
b11011 *
b11011 X
b11011 -#
b11011 [
b11011 2#
b11011 ^
b11011 7#
b1000000 w
1B
#302
b100001111111 D
b100001111111 b
b100001111111 r"
b11011 W
b11011 d
b11011 s"
#305
0B
#310
b11101 G
b100001111111 H
b11011 J
b100001111111 h
b100001111111 v
b100001111111 t"
b11011 g
b11011 t
b11011 u"
b11011 p
b11011 u
b11011 k"
b11011 l"
b11011 v"
b101100100001 (
b11100 E
b11100 |"
b11100 *
b11100 X
b11100 -#
b11100 [
b11100 2#
b11100 ^
b11100 7#
b1000000 w
1B
#312
b101100100001 D
b101100100001 b
b101100100001 r"
b11100 W
b11100 d
b11100 s"
#315
0B
