Modules(Discontinued)/Simulate/impulse.vcd
$date
	Tue Apr  9 12:54:03 2024
$end
$version
	Icarus Verilog
$end
$timescale
	1ns
$end
$scope module filter_impluse_tb $end
$var wire 1 ! coeffs_in_data_log_rdenb $end
$var wire 1 " delayLine_out $end
$var wire 1 # expected_ce_out $end
$var wire 1 $ filter_in_data_log_rdenb $end
$var wire 16 % filter_out_dataTable [15:0] $end
$var wire 1 & filter_out_rdenb $end
$var wire 16 ' filter_out_ref [15:0] $end
$var wire 16 ( rawData_coeffs_in [15:0] $end
$var wire 16 ) rawData_filter_in [15:0] $end
$var wire 6 * rawData_write_address [5:0] $end
$var wire 1 + rawData_write_done $end
$var wire 1 , rawData_write_enable $end
$var wire 1 - rdEnb_phase_1 $end
$var wire 1 . rdEnb_phase_all $end
$var wire 1 / snkDone $end
$var wire 1 0 srcDone $end
$var wire 1 1 testFailure $end
$var wire 1 2 write_address_data_log_rdenb $end
$var wire 1 3 write_done_data_log_rdenb $end
$var wire 1 4 write_enable_data_log_rdenb $end
$var wire 1 5 phase_all_3 $end
$var wire 1 6 phase_all_2 $end
$var wire 1 7 phase_all_1 $end
$var wire 1 8 phase_all $end
$var wire 1 9 phase_1 $end
$var wire 16 : filter_out_refTmp [15:0] $end
$var wire 16 ; filter_out [15:0] $end
$var parameter 32 < MAX_ERROR_COUNT $end
$var parameter 32 = clk_high $end
$var parameter 32 > clk_hold $end
$var parameter 32 ? clk_low $end
$var parameter 32 @ clk_period $end
$var reg 1 A check1_Done $end
$var reg 1 B clk $end
$var reg 1 C clk_enable $end
$var reg 16 D coeffs_in [15:0] $end
$var reg 14 E coeffs_in_data_log_addr [13:0] $end
$var reg 1 F coeffs_in_data_log_done $end
$var reg 6 G counter [5:0] $end
$var reg 16 H filter_in [15:0] $end
$var reg 8 I filter_in_data_log_addr [7:0] $end
$var reg 1 J filter_in_data_log_done $end
$var reg 8 K filter_out_addr [7:0] $end
$var reg 1 L filter_out_done $end
$var reg 1 M filter_out_testFailure $end
$var reg 16 N holdData_coeffs_in [15:0] $end
$var reg 16 O holdData_filter_in [15:0] $end
$var reg 6 P holdData_write_address [5:0] $end
$var reg 1 Q holdData_write_done $end
$var reg 1 R holdData_write_enable $end
$var reg 16 S regout [15:0] $end
$var reg 1 T rst $end
$var reg 1 U tb_enb $end
$var reg 1 V tbenb_dly $end
$var reg 6 W write_address [5:0] $end
$var reg 14 X write_address_data_log_addr [13:0] $end
$var reg 1 Y write_address_data_log_done $end
$var reg 1 Z write_done $end
$var reg 14 [ write_done_data_log_addr [13:0] $end
$var reg 1 \ write_done_data_log_done $end
$var reg 1 ] write_enable $end
$var reg 14 ^ write_enable_data_log_addr [13:0] $end
$var reg 1 _ write_enable_data_log_done $end
$var integer 32 ` filter_out_errCnt [31:0] $end
$scope function abs $end
$var reg 16 a arg [15:0] $end
$upscope $end
$scope module u_filter $end
$var wire 1 B clk $end
$var wire 1 C clk_enable $end
$var wire 16 b coeffs_in [15:0] $end
$var wire 16 c filter_in [15:0] $end
$var wire 1 T rst $end
$var wire 6 d write_address [5:0] $end
$var wire 1 Z write_done $end
$var wire 1 ] write_enable $end
$var wire 1 e w_write_enable $end
$var wire 1 f w_write_done $end
$var wire 6 g w_write_address [5:0] $end
$var wire 16 h w_coeffs_in [15:0] $end
$var wire 16 i product_mux [15:0] $end
$var wire 1 j phase_63 $end
$var wire 1 k phase_0 $end
$var wire 1 l o_write_done_edge $end
$var wire 1 m o_write_done_capture $end
$var wire 16 n input_mux [15:0] $end
$var wire 16 o filter_out [15:0] $end
$var wire 6 p current_count [5:0] $end
$var wire 1 q control_phase_bar $end
$var wire 1 r coeffs_en $end
$scope module coeffs_control_inst $end
$var wire 1 B clk $end
$var wire 1 C clk_enable $end
$var wire 16 s product_mux [15:0] $end
$var wire 1 T rst $end
$var wire 1 e write_enable $end
$var wire 6 t write_address [5:0] $end
$var wire 6 u current_count [5:0] $end
$var wire 16 v coeffs_in [15:0] $end
$var wire 1 r coeffs_en $end
$var integer 32 w coeffs_regs_index [31:0] $end
$var integer 32 x coeffs_regs_reset_index [31:0] $end
$var integer 32 y coeffs_shadow_index [31:0] $end
$var integer 32 z coeffs_shadow_reset_index [31:0] $end
$scope begin gen_coeffs_assigned[0] $end
$var parameter 2 { i $end
$upscope $end
$scope begin gen_coeffs_assigned[1] $end
$var parameter 2 | i $end
$upscope $end
$scope begin gen_coeffs_assigned[2] $end
$var parameter 3 } i $end
$upscope $end
$scope begin gen_coeffs_assigned[3] $end
$var parameter 3 ~ i $end
$upscope $end
$scope begin gen_coeffs_assigned[4] $end
$var parameter 4 !" i $end
$upscope $end
$scope begin gen_coeffs_assigned[5] $end
$var parameter 4 "" i $end
$upscope $end
$scope begin gen_coeffs_assigned[6] $end
$var parameter 4 #" i $end
$upscope $end
$scope begin gen_coeffs_assigned[7] $end
$var parameter 4 $" i $end
$upscope $end
$scope begin gen_coeffs_assigned[8] $end
$var parameter 5 %" i $end
$upscope $end
$scope begin gen_coeffs_assigned[9] $end
$var parameter 5 &" i $end
$upscope $end
$scope begin gen_coeffs_assigned[10] $end
$var parameter 5 '" i $end
$upscope $end
$scope begin gen_coeffs_assigned[11] $end
$var parameter 5 (" i $end
$upscope $end
$scope begin gen_coeffs_assigned[12] $end
$var parameter 5 )" i $end
$upscope $end
$scope begin gen_coeffs_assigned[13] $end
$var parameter 5 *" i $end
$upscope $end
$scope begin gen_coeffs_assigned[14] $end
$var parameter 5 +" i $end
$upscope $end
$scope begin gen_coeffs_assigned[15] $end
$var parameter 5 ," i $end
$upscope $end
$scope begin gen_coeffs_assigned[16] $end
$var parameter 6 -" i $end
$upscope $end
$scope begin gen_coeffs_assigned[17] $end
$var parameter 6 ." i $end
$upscope $end
$scope begin gen_coeffs_assigned[18] $end
$var parameter 6 /" i $end
$upscope $end
$scope begin gen_coeffs_assigned[19] $end
$var parameter 6 0" i $end
$upscope $end
$scope begin gen_coeffs_assigned[20] $end
$var parameter 6 1" i $end
$upscope $end
$scope begin gen_coeffs_assigned[21] $end
$var parameter 6 2" i $end
$upscope $end
$scope begin gen_coeffs_assigned[22] $end
$var parameter 6 3" i $end
$upscope $end
$scope begin gen_coeffs_assigned[23] $end
$var parameter 6 4" i $end
$upscope $end
$scope begin gen_coeffs_assigned[24] $end
$var parameter 6 5" i $end
$upscope $end
$scope begin gen_coeffs_assigned[25] $end
$var parameter 6 6" i $end
$upscope $end
$scope begin gen_coeffs_assigned[26] $end
$var parameter 6 7" i $end
$upscope $end
$scope begin gen_coeffs_assigned[27] $end
$var parameter 6 8" i $end
$upscope $end
$scope begin gen_coeffs_assigned[28] $end
$var parameter 6 9" i $end
$upscope $end
$scope begin gen_coeffs_assigned[29] $end
$var parameter 6 :" i $end
$upscope $end
$scope begin gen_coeffs_assigned[30] $end
$var parameter 6 ;" i $end
$upscope $end
$scope begin gen_coeffs_assigned[31] $end
$var parameter 6 <" i $end
$upscope $end
$scope begin gen_coeffs_assigned[32] $end
$var parameter 7 =" i $end
$upscope $end
$scope begin gen_coeffs_assigned[33] $end
$var parameter 7 >" i $end
$upscope $end
$scope begin gen_coeffs_assigned[34] $end
$var parameter 7 ?" i $end
$upscope $end
$scope begin gen_coeffs_assigned[35] $end
$var parameter 7 @" i $end
$upscope $end
$scope begin gen_coeffs_assigned[36] $end
$var parameter 7 A" i $end
$upscope $end
$scope begin gen_coeffs_assigned[37] $end
$var parameter 7 B" i $end
$upscope $end
$scope begin gen_coeffs_assigned[38] $end
$var parameter 7 C" i $end
$upscope $end
$scope begin gen_coeffs_assigned[39] $end
$var parameter 7 D" i $end
$upscope $end
$scope begin gen_coeffs_assigned[40] $end
$var parameter 7 E" i $end
$upscope $end
$scope begin gen_coeffs_assigned[41] $end
$var parameter 7 F" i $end
$upscope $end
$scope begin gen_coeffs_assigned[42] $end
$var parameter 7 G" i $end
$upscope $end
$scope begin gen_coeffs_assigned[43] $end
$var parameter 7 H" i $end
$upscope $end
$scope begin gen_coeffs_assigned[44] $end
$var parameter 7 I" i $end
$upscope $end
$scope begin gen_coeffs_assigned[45] $end
$var parameter 7 J" i $end
$upscope $end
$scope begin gen_coeffs_assigned[46] $end
$var parameter 7 K" i $end
$upscope $end
$scope begin gen_coeffs_assigned[47] $end
$var parameter 7 L" i $end
$upscope $end
$scope begin gen_coeffs_assigned[48] $end
$var parameter 7 M" i $end
$upscope $end
$scope begin gen_coeffs_assigned[49] $end
$var parameter 7 N" i $end
$upscope $end
$scope begin gen_coeffs_assigned[50] $end
$var parameter 7 O" i $end
$upscope $end
$scope begin gen_coeffs_assigned[51] $end
$var parameter 7 P" i $end
$upscope $end
$scope begin gen_coeffs_assigned[52] $end
$var parameter 7 Q" i $end
$upscope $end
$scope begin gen_coeffs_assigned[53] $end
$var parameter 7 R" i $end
$upscope $end
$scope begin gen_coeffs_assigned[54] $end
$var parameter 7 S" i $end
$upscope $end
$scope begin gen_coeffs_assigned[55] $end
$var parameter 7 T" i $end
$upscope $end
$scope begin gen_coeffs_assigned[56] $end
$var parameter 7 U" i $end
$upscope $end
$scope begin gen_coeffs_assigned[57] $end
$var parameter 7 V" i $end
$upscope $end
$scope begin gen_coeffs_assigned[58] $end
$var parameter 7 W" i $end
$upscope $end
$scope begin gen_coeffs_assigned[59] $end
$var parameter 7 X" i $end
$upscope $end
$scope begin gen_coeffs_assigned[60] $end
$var parameter 7 Y" i $end
$upscope $end
$scope begin gen_coeffs_assigned[61] $end
$var parameter 7 Z" i $end
$upscope $end
$scope begin gen_coeffs_assigned[62] $end
$var parameter 7 [" i $end
$upscope $end
$scope begin gen_coeffs_assigned[63] $end
$var parameter 7 \" i $end
$upscope $end
$upscope $end
$scope module compute_inst $end
$var wire 1 B clk $end
$var wire 1 C clk_enable $end
$var wire 16 ]" product_mux [15:0] $end
$var wire 1 T rst $end
$var wire 33 ^" w_acc_out [32:0] $end
$var wire 36 _" sign_extended_product [35:0] $end
$var wire 33 `" sign_extended_add [32:0] $end
$var wire 34 a" product [33:0] $end
$var wire 1 j phase_63 $end
$var wire 1 k phase_0 $end
$var wire 16 b" output_typeconvert [15:0] $end
$var wire 32 c" mul_temp [31:0] $end
$var wire 16 d" input_mux [15:0] $end
$var wire 37 e" add_temp [36:0] $end
$var wire 36 f" acc_sum [35:0] $end
$var wire 36 g" acc_in [35:0] $end
$var reg 36 h" acc_final [35:0] $end
$var reg 36 i" acc_out [35:0] $end
$var reg 16 j" filter_out [15:0] $end
$upscope $end
$scope module counter_inst $end
$var wire 1 B clk $end
$var wire 1 C clk_enable $end
$var wire 1 T rst $end
$var parameter 6 k" COUNTER_MAX_COUNT $end
$var parameter 6 l" COUNTER_MIN_COUNT $end
$var reg 6 m" current_count [5:0] $end
$upscope $end
$scope module delay_pipeline_inst $end
$var wire 1 B clk $end
$var wire 6 n" current_count [5:0] $end
$var wire 16 o" filter_in [15:0] $end
$var wire 16 p" input_mux [15:0] $end
$var wire 1 T rst $end
$var wire 1 j phase_63 $end
$var parameter 32 q" NUMBER_OF_PIPE $end
$var integer 32 r" pipe_index [31:0] $end
$var integer 32 s" pipe_reset_index [31:0] $end
$upscope $end
$scope module input_register_inst $end
$var wire 1 B clk $end
$var wire 1 C clk_enable $end
$var wire 16 t" i_coeffs_in [15:0] $end
$var wire 6 u" i_write_address [5:0] $end
$var wire 1 Z i_write_done $end
$var wire 1 ] i_write_enable $end
$var wire 1 T rst $end
$var reg 16 v" o_coeffs_in [15:0] $end
$var reg 6 w" o_write_address [5:0] $end
$var reg 1 f o_write_done $end
$var reg 1 e o_write_enable $end
$upscope $end
$scope module phase_check_inst $end
$var wire 1 C clk_enable $end
$var wire 1 q control_phase_bar $end
$var wire 6 x" current_count [5:0] $end
$var wire 1 j phase_63 $end
$var wire 1 k phase_0 $end
$var parameter 6 y" COUNTER_MAX_COUNT $end
$var parameter 6 z" COUNTER_MIN_COUNT $end
$upscope $end
$scope module write_done_capture_inst $end
$var wire 1 B clk $end
$var wire 1 C clk_enable $end
$var wire 1 r coeffs_en $end
$var wire 1 q i_control_phase_bar $end
$var wire 1 f i_write_done $end
$var wire 1 j phase_63 $end
$var wire 1 T rst $end
$var wire 1 {" w_write_done_edge_bar $end
$var wire 1 |" w_write_done_short $end
$var wire 1 }" w_write_done_capture_in $end
$var reg 1 m o_write_done_capture $end
$var reg 1 l o_write_done_edge $end
$upscope $end
$upscope $end
$scope begin DataHoldRegister_temp_process2 $end
$upscope $end
$scope begin ceout_delayLine $end
$upscope $end
$scope begin slow_clock_enable $end
$upscope $end
$scope begin tb_enb_delay $end
$upscope $end
$scope task coeffs_in_data_log_task $end
$var reg 14 ~" addr [13:0] $end
$var reg 1 !# clk $end
$var reg 1 "# done $end
$var reg 1 ## rdenb $end
$var reg 1 $# reset $end
$upscope $end
$scope task filter_in_data_log_task $end
$var reg 8 %# addr [7:0] $end
$var reg 1 &# clk $end
$var reg 1 '# done $end
$var reg 1 (# rdenb $end
$var reg 1 )# reset $end
$upscope $end
$scope task filter_out_task $end
$var reg 8 *# addr [7:0] $end
$var reg 1 +# clk $end
$var reg 1 ,# done $end
$var reg 1 -# rdenb $end
$var reg 1 .# reset $end
$upscope $end
$scope task write_address_data_log_task $end
$var reg 14 /# addr [13:0] $end
$var reg 1 0# clk $end
$var reg 1 1# done $end
$var reg 1 2# rdenb $end
$var reg 1 3# reset $end
$upscope $end
$scope task write_done_data_log_task $end
$var reg 14 4# addr [13:0] $end
$var reg 1 5# clk $end
$var reg 1 6# done $end
$var reg 1 7# rdenb $end
$var reg 1 8# reset $end
$upscope $end
$scope task write_enable_data_log_task $end
$var reg 14 9# addr [13:0] $end
$var reg 1 :# clk $end
$var reg 1 ;# done $end
$var reg 1 <# rdenb $end
$var reg 1 =# reset $end
$upscope $end
$upscope $end
$enddefinitions $end
$comment Show the parameter values. $end
$dumpall
b0 z"
b111111 y"
b1000000 q"
b0 l"
b111111 k"
b111111 \"
b111110 ["
b111101 Z"
b111100 Y"
b111011 X"
b111010 W"
b111001 V"
b111000 U"
b110111 T"
b110110 S"
b110101 R"
b110100 Q"
b110011 P"
b110010 O"
b110001 N"
b110000 M"
b101111 L"
b101110 K"
b101101 J"
b101100 I"
b101011 H"
b101010 G"
b101001 F"
b101000 E"
b100111 D"
b100110 C"
b100101 B"
b100100 A"
b100011 @"
b100010 ?"
b100001 >"
b100000 ="
b11111 <"
b11110 ;"
b11101 :"
b11100 9"
b11011 8"
b11010 7"
b11001 6"
b11000 5"
b10111 4"
b10110 3"
b10101 2"
b10100 1"
b10011 0"
b10010 /"
b10001 ."
b10000 -"
b1111 ,"
b1110 +"
b1101 *"
b1100 )"
b1011 ("
b1010 '"
b1001 &"
b1000 %"
b111 $"
b110 #"
b101 ""
b100 !"
b11 ~
b10 }
b1 |
b0 {
b1010 @
b101 ?
b10 >
b101 =
b10000010 <
$end
#0
$dumpvars
1=#
x<#
0;#
1:#
b0 9#
18#
x7#
06#
15#
b0 4#
13#
x2#
01#
10#
b0 /#
1.#
x-#
0,#
1+#
b0 *#
1)#
x(#
0'#
1&#
b0 %#
1$#
x##
0"#
1!#
b0 ~"
0}"
0|"
1{"
b111111 x"
b0 w"
b0 v"
bx u"
bx t"
b1000000 s"
bx r"
b0 p"
bx o"
b111111 n"
b111111 m"
b0 j"
b0 i"
b0 h"
b0 g"
b0 f"
b0 e"
b0 d"
b0 c"
b0 b"
b0 a"
b0 `"
b0 _"
b0 ^"
b0 ]"
b1000000 z
bx y
b1000000 x
bx w
b0 v
b111111 u
b0 t
b0 s
0r
xq
b111111 p
b0 o
b0 n
0m
0l
0k
xj
b0 i
b0 h
b0 g
0f
0e
bx d
bx c
bx b
bx a
b0 `
0_
b0 ^
x]
0\
b0 [
xZ
0Y
b0 X
bx W
0V
0U
1T
b0 S
0R
0Q
b0 P
b0 O
b0 N
0M
0L
b0 K
0J
b0 I
bx H
b1 G
0F
b0 E
bx D
xC
1B
0A
b0 ;
b0 :
09
08
07
06
05
04
03
02
01
00
0/
0.
0-
1,
0+
b0 *
b0 )
b1111111111010111 (
b0 '
0&
bx %
0$
0#
0"
0!
$end
#2
1q
0j
0C
b0 D
b0 b
b0 t"
b0 W
b0 d
b0 u"
0Z
0]
b0 H
b0 c
b0 o"
b0 %
#5
0B
#10
b1000000 z
b1000000 x
b1000000 s"
0(#
0<#
07#
02#
0##
0-#
1B
#15
0B
#20
b1000000 s"
b1000000 x
b1000000 z
1B
#22
1U
0T
#25
0B
#30
1$
1-
19
14
13
12
1!
1.
18
17
16
15
1V
b1111111111010111 N
1R
0)#
0=#
08#
03#
0$#
0.#
1B
#32
0q
1j
1C
b1111111111010111 D
b1111111111010111 b
b1111111111010111 t"
1]
#35
0B
#40
1q
0j
1k
0$
0-
09
b10 G
b0 p
b0 u
b0 m"
b0 n"
b0 x"
b1111111111010111 h
b1111111111010111 v
b1111111111010111 v"
1e
b1111111110000011 (
b1 E
b1 ~"
b1 *
b1 X
b1 /#
b1 [
b1 4#
b1 ^
b1 9#
b1 I
b1 %#
b0 r"
b1000000 w
1(#
1<#
17#
12#
1##
1B
#42
b1111111110000011 D
b1111111110000011 b
b1111111110000011 t"
b1 W
b1 d
b1 u"
#45
0B
#50
0k
b11 G
b1111111110000011 N
b1 P
b1111111110000011 h
b1111111110000011 v
b1111111110000011 v"
b1 g
b1 t
b1 w"
b1 p
b1 u
b1 m"
b1 n"
b1 x"
b1111111100101110 (
b10 E
b10 ~"
b10 *
b10 X
b10 /#
b10 [
b10 4#
b10 ^
b10 9#
b1000000 w
0(#
1B
#52
b1111111100101110 D
b1111111100101110 b
b1111111100101110 t"
b10 W
b10 d
b10 u"
#55
0B
#60
b100 G
b10 p
b10 u
b10 m"
b10 n"
b10 x"
b1111111100101110 h
b1111111100101110 v
b1111111100101110 v"
b10 g
b10 t
b10 w"
b10 P
b1111111100101110 N
b1111111011011111 (
b11 E
b11 ~"
b11 *
b11 X
b11 /#
b11 [
b11 4#
b11 ^
b11 9#
b1000000 w
1B
#62
b1111111011011111 D
b1111111011011111 b
b1111111011011111 t"
b11 W
b11 d
b11 u"
#65
0B
#70
b101 G
b1111111011011111 N
b11 P
b1111111011011111 h
b1111111011011111 v
b1111111011011111 v"
b11 g
b11 t
b11 w"
b11 p
b11 u
b11 m"
b11 n"
b11 x"
b1111111010100110 (
b100 E
b100 ~"
b100 *
b100 X
b100 /#
b100 [
b100 4#
b100 ^
b100 9#
b1000000 w
1B
#72
b1111111010100110 D
b1111111010100110 b
b1111111010100110 t"
b100 W
b100 d
b100 u"
#75
0B
#80
b110 G
b100 p
b100 u
b100 m"
b100 n"
b100 x"
b1111111010100110 h
b1111111010100110 v
b1111111010100110 v"
b100 g
b100 t
b100 w"
b100 P
b1111111010100110 N
b1111111010011011 (
b101 E
b101 ~"
b101 *
b101 X
b101 /#
b101 [
b101 4#
b101 ^
b101 9#
b1000000 w
1B
#82
b1111111010011011 D
b1111111010011011 b
b1111111010011011 t"
b101 W
b101 d
b101 u"
#85
0B
#90
b111 G
b1111111010011011 N
b101 P
b1111111010011011 h
b1111111010011011 v
b1111111010011011 v"
b101 g
b101 t
b101 w"
b101 p
b101 u
b101 m"
b101 n"
b101 x"
b1111111011011100 (
b110 E
b110 ~"
b110 *
b110 X
b110 /#
b110 [
b110 4#
b110 ^
b110 9#
b1000000 w
1B
#92
b1111111011011100 D
b1111111011011100 b
b1111111011011100 t"
b110 W
b110 d
b110 u"
#95
0B
#100
b1000 G
b110 p
b110 u
b110 m"
b110 n"
b110 x"
b1111111011011100 h
b1111111011011100 v
b1111111011011100 v"
b110 g
b110 t
b110 w"
b110 P
b1111111011011100 N
b1111111110000011 (
b111 E
b111 ~"
b111 *
b111 X
b111 /#
b111 [
b111 4#
b111 ^
b111 9#
b1000000 w
1B
#102
b1111111110000011 D
b1111111110000011 b
b1111111110000011 t"
b111 W
b111 d
b111 u"
#105
0B
#110
b1001 G
b1111111110000011 N
b111 P
b1111111110000011 h
b1111111110000011 v
b1111111110000011 v"
b111 g
b111 t
b111 w"
b111 p
b111 u
b111 m"
b111 n"
b111 x"
b10011000 (
b1000 E
b1000 ~"
b1000 *
b1000 X
b1000 /#
b1000 [
b1000 4#
b1000 ^
b1000 9#
b1000000 w
1B
#112
b10011000 D
b10011000 b
b10011000 t"
b1000 W
b1000 d
b1000 u"
#115
0B
#120
b1010 G
b1000 p
b1000 u
b1000 m"
b1000 n"
b1000 x"
b10011000 h
b10011000 v
b10011000 v"
b1000 g
b1000 t
b1000 w"
b1000 P
b10011000 N
b1000001011 (
b1001 E
b1001 ~"
b1001 *
b1001 X
b1001 /#
b1001 [
b1001 4#
b1001 ^
b1001 9#
b1000000 w
1B
#122
b1000001011 D
b1000001011 b
b1000001011 t"
b1001 W
b1001 d
b1001 u"
#125
0B
#130
b1011 G
b1000001011 N
b1001 P
b1000001011 h
b1000001011 v
b1000001011 v"
b1001 g
b1001 t
b1001 w"
b1001 p
b1001 u
b1001 m"
b1001 n"
b1001 x"
b1110101100 (
b1010 E
b1010 ~"
b1010 *
b1010 X
b1010 /#
b1010 [
b1010 4#
b1010 ^
b1010 9#
b1000000 w
1B
#132
b1110101100 D
b1110101100 b
b1110101100 t"
b1010 W
b1010 d
b1010 u"
#135
0B
#140
b1100 G
b1010 p
b1010 u
b1010 m"
b1010 n"
b1010 x"
b1110101100 h
b1110101100 v
b1110101100 v"
b1010 g
b1010 t
b1010 w"
b1010 P
b1110101100 N
b10100101001 (
b1011 E
b1011 ~"
b1011 *
b1011 X
b1011 /#
b1011 [
b1011 4#
b1011 ^
b1011 9#
b1000000 w
1B
#142
b10100101001 D
b10100101001 b
b10100101001 t"
b1011 W
b1011 d
b1011 u"
#145
0B
#150
b1101 G
b10100101001 N
b1011 P
b10100101001 h
b10100101001 v
b10100101001 v"
b1011 g
b1011 t
b1011 w"
b1011 p
b1011 u
b1011 m"
b1011 n"
b1011 x"
b11000011101 (
b1100 E
b1100 ~"
b1100 *
b1100 X
b1100 /#
b1100 [
b1100 4#
b1100 ^
b1100 9#
b1000000 w
1B
#152
b11000011101 D
b11000011101 b
b11000011101 t"
b1100 W
b1100 d
b1100 u"
#155
0B
#160
b1110 G
b1100 p
b1100 u
b1100 m"
b1100 n"
b1100 x"
b11000011101 h
b11000011101 v
b11000011101 v"
b1100 g
b1100 t
b1100 w"
b1100 P
b11000011101 N
b11000011010 (
b1101 E
b1101 ~"
b1101 *
b1101 X
b1101 /#
b1101 [
b1101 4#
b1101 ^
b1101 9#
b1000000 w
1B
#162
b11000011010 D
b11000011010 b
b11000011010 t"
b1101 W
b1101 d
b1101 u"
#165
0B
#170
b1111 G
b11000011010 N
b1101 P
b11000011010 h
b11000011010 v
b11000011010 v"
b1101 g
b1101 t
b1101 w"
b1101 p
b1101 u
b1101 m"
b1101 n"
b1101 x"
b10011000110 (
b1110 E
b1110 ~"
b1110 *
b1110 X
b1110 /#
b1110 [
b1110 4#
b1110 ^
b1110 9#
b1000000 w
1B
#172
b10011000110 D
b10011000110 b
b10011000110 t"
b1110 W
b1110 d
b1110 u"
#175
0B
#180
b10000 G
b1110 p
b1110 u
b1110 m"
b1110 n"
b1110 x"
b10011000110 h
b10011000110 v
b10011000110 v"
b1110 g
b1110 t
b1110 w"
b1110 P
b10011000110 N
b111110100 (
b1111 E
b1111 ~"
b1111 *
b1111 X
b1111 /#
b1111 [
b1111 4#
b1111 ^
b1111 9#
b1000000 w
1B
#182
b111110100 D
b111110100 b
b111110100 t"
b1111 W
b1111 d
b1111 u"
#185
0B
#190
b10001 G
b111110100 N
b1111 P
b111110100 h
b111110100 v
b111110100 v"
b1111 g
b1111 t
b1111 w"
b1111 p
b1111 u
b1111 m"
b1111 n"
b1111 x"
b1111110110111011 (
b10000 E
b10000 ~"
b10000 *
b10000 X
b10000 /#
b10000 [
b10000 4#
b10000 ^
b10000 9#
b1000000 w
1B
#192
b1111110110111011 D
b1111110110111011 b
b1111110110111011 t"
b10000 W
b10000 d
b10000 u"
#195
0B
#200
b10010 G
b10000 p
b10000 u
b10000 m"
b10000 n"
b10000 x"
b1111110110111011 h
b1111110110111011 v
b1111110110111011 v"
b10000 g
b10000 t
b10000 w"
b10000 P
b1111110110111011 N
b1111100010000110 (
b10001 E
b10001 ~"
b10001 *
b10001 X
b10001 /#
b10001 [
b10001 4#
b10001 ^
b10001 9#
b1000000 w
1B
#202
b1111100010000110 D
b1111100010000110 b
b1111100010000110 t"
b10001 W
b10001 d
b10001 u"
#205
0B
#210
b10011 G
b1111100010000110 N
b10001 P
b1111100010000110 h
b1111100010000110 v
b1111100010000110 v"
b10001 g
b10001 t
b10001 w"
b10001 p
b10001 u
b10001 m"
b10001 n"
b10001 x"
b1111001100010010 (
b10010 E
b10010 ~"
b10010 *
b10010 X
b10010 /#
b10010 [
b10010 4#
b10010 ^
b10010 9#
b1000000 w
1B
#212
b1111001100010010 D
b1111001100010010 b
b1111001100010010 t"
b10010 W
b10010 d
b10010 u"
#215
0B
#220
b10100 G
b10010 p
b10010 u
b10010 m"
b10010 n"
b10010 x"
b1111001100010010 h
b1111001100010010 v
b1111001100010010 v"
b10010 g
b10010 t
b10010 w"
b10010 P
b1111001100010010 N
b1110111001100110 (
b10011 E
b10011 ~"
b10011 *
b10011 X
b10011 /#
b10011 [
b10011 4#
b10011 ^
b10011 9#
b1000000 w
1B
#222
b1110111001100110 D
b1110111001100110 b
b1110111001100110 t"
b10011 W
b10011 d
b10011 u"
#225
0B
#230
b10101 G
b1110111001100110 N
b10011 P
b1110111001100110 h
b1110111001100110 v
b1110111001100110 v"
b10011 g
b10011 t
b10011 w"
b10011 p
b10011 u
b10011 m"
b10011 n"
b10011 x"
b1110101110101101 (
b10100 E
b10100 ~"
b10100 *
b10100 X
b10100 /#
b10100 [
b10100 4#
b10100 ^
b10100 9#
b1000000 w
1B
#232
b1110101110101101 D
b1110101110101101 b
b1110101110101101 t"
b10100 W
b10100 d
b10100 u"
#235
0B
#240
b10110 G
b10100 p
b10100 u
b10100 m"
b10100 n"
b10100 x"
b1110101110101101 h
b1110101110101101 v
b1110101110101101 v"
b10100 g
b10100 t
b10100 w"
b10100 P
b1110101110101101 N
b1110110000010011 (
b10101 E
b10101 ~"
b10101 *
b10101 X
b10101 /#
b10101 [
b10101 4#
b10101 ^
b10101 9#
b1000000 w
1B
#242
b1110110000010011 D
b1110110000010011 b
b1110110000010011 t"
b10101 W
b10101 d
b10101 u"
#245
0B
#250
b10111 G
b1110110000010011 N
b10101 P
b1110110000010011 h
b1110110000010011 v
b1110110000010011 v"
b10101 g
b10101 t
b10101 w"
b10101 p
b10101 u
b10101 m"
b10101 n"
b10101 x"
b1111000010001100 (
b10110 E
b10110 ~"
b10110 *
b10110 X
b10110 /#
b10110 [
b10110 4#
b10110 ^
b10110 9#
b1000000 w
1B
#252
b1111000010001100 D
b1111000010001100 b
b1111000010001100 t"
b10110 W
b10110 d
b10110 u"
#255
0B
#260
b11000 G
b10110 p
b10110 u
b10110 m"
b10110 n"
b10110 x"
b1111000010001100 h
b1111000010001100 v
b1111000010001100 v"
b10110 g
b10110 t
b10110 w"
b10110 P
b1111000010001100 N
b1111100110101011 (
b10111 E
b10111 ~"
b10111 *
b10111 X
b10111 /#
b10111 [
b10111 4#
b10111 ^
b10111 9#
b1000000 w
1B
#262
b1111100110101011 D
b1111100110101011 b
b1111100110101011 t"
b10111 W
b10111 d
b10111 u"
#265
0B
#270
b11001 G
b1111100110101011 N
b10111 P
b1111100110101011 h
b1111100110101011 v
b1111100110101011 v"
b10111 g
b10111 t
b10111 w"
b10111 p
b10111 u
b10111 m"
b10111 n"
b10111 x"
b11101110101 (
b11000 E
b11000 ~"
b11000 *
b11000 X
b11000 /#
b11000 [
b11000 4#
b11000 ^
b11000 9#
b1000000 w
1B
#272
b11101110101 D
b11101110101 b
b11101110101 t"
b11000 W
b11000 d
b11000 u"
#275
0B
#280
b11010 G
b11000 p
b11000 u
b11000 m"
b11000 n"
b11000 x"
b11101110101 h
b11101110101 v
b11101110101 v"
b11000 g
b11000 t
b11000 w"
b11000 P
b11101110101 N
b1100101010011 (
b11001 E
b11001 ~"
b11001 *
b11001 X
b11001 /#
b11001 [
b11001 4#
b11001 ^
b11001 9#
b1000000 w
1B
#282
b1100101010011 D
b1100101010011 b
b1100101010011 t"
b11001 W
b11001 d
b11001 u"
#285
0B
#290
b11011 G
b1100101010011 N
b11001 P
b1100101010011 h
b1100101010011 v
b1100101010011 v"
b11001 g
b11001 t
b11001 w"
b11001 p
b11001 u
b11001 m"
b11001 n"
b11001 x"
b10111000010010 (
b11010 E
b11010 ~"
b11010 *
b11010 X
b11010 /#
b11010 [
b11010 4#
b11010 ^
b11010 9#
b1000000 w
1B
#292
b10111000010010 D
b10111000010010 b
b10111000010010 t"
b11010 W
b11010 d
b11010 u"
#295
0B
#300
b11100 G
b11010 p
b11010 u
b11010 m"
b11010 n"
b11010 x"
b10111000010010 h
b10111000010010 v
b10111000010010 v"
b11010 g
b11010 t
b11010 w"
b11010 P
b10111000010010 N
b100001111111100 (
b11011 E
b11011 ~"
b11011 *
b11011 X
b11011 /#
b11011 [
b11011 4#
b11011 ^
b11011 9#
b1000000 w
1B
#302
b100001111111100 D
b100001111111100 b
b100001111111100 t"
b11011 W
b11011 d
b11011 u"
#305
0B
#310
b11101 G
b100001111111100 N
b11011 P
b100001111111100 h
b100001111111100 v
b100001111111100 v"
b11011 g
b11011 t
b11011 w"
b11011 p
b11011 u
b11011 m"
b11011 n"
b11011 x"
b101100100001010 (
b11100 E
b11100 ~"
b11100 *
b11100 X
b11100 /#
b11100 [
b11100 4#
b11100 ^
b11100 9#
b1000000 w
1B
