Modules(Discontinued)/Simulate/test.vcd
$date
	Fri Apr  5 13:43:39 2024
$end
$version
	Icarus Verilog
$end
$timescale
	1ns
$end
$scope module filter_tb $end
$var wire 1 ! coeffs_in_data_log_rdenb $end
$var wire 1 " delayLine_out $end
$var wire 1 # expected_ce_out $end
$var wire 1 $ i_signal_sample_data_log_rdenb $end
$var wire 16 % o_filtered_signal_sample_dataTable [15:0] $end
$var wire 1 & o_filtered_signal_sample_rdenb $end
$var wire 16 ' o_filtered_signal_sample_ref [15:0] $end
$var wire 16 ( rawData_coeffs_in [15:0] $end
$var wire 16 ) rawData_i_signal_sample [15:0] $end
$var wire 6 * rawData_write_address [5:0] $end
$var wire 1 + rawData_write_done $end
$var wire 1 , rawData_write_enable $end
$var wire 1 - rdEnb_phase_1 $end
$var wire 1 . rdEnb_phase_all $end
$var wire 1 / snkDone $end
$var wire 1 0 srcDone $end
$var wire 1 1 testFailure $end
$var wire 1 2 write_address_data_log_rdenb $end
$var wire 1 3 write_done_data_log_rdenb $end
$var wire 1 4 write_enable_data_log_rdenb $end
$var wire 1 5 phase_all_3 $end
$var wire 1 6 phase_all_2 $end
$var wire 1 7 phase_all_1 $end
$var wire 1 8 phase_all $end
$var wire 1 9 phase_1 $end
$var wire 16 : o_filtered_signal_sample_refTmp [15:0] $end
$var wire 16 ; o_filtered_signal_sample [15:0] $end
$var parameter 32 < MAX_ERROR_COUNT $end
$var parameter 32 = clk_high $end
$var parameter 32 > clk_hold $end
$var parameter 32 ? clk_low $end
$var parameter 32 @ clk_period $end
$var reg 1 A check1_Done $end
$var reg 1 B clk $end
$var reg 1 C clk_enable $end
$var reg 16 D coeffs_in [15:0] $end
$var reg 14 E coeffs_in_data_log_addr [13:0] $end
$var reg 1 F coeffs_in_data_log_done $end
$var reg 6 G counter [5:0] $end
$var reg 16 H holdData_coeffs_in [15:0] $end
$var reg 16 I holdData_i_signal_sample [15:0] $end
$var reg 6 J holdData_write_address [5:0] $end
$var reg 1 K holdData_write_done $end
$var reg 1 L holdData_write_enable $end
$var reg 16 M i_signal_sample [15:0] $end
$var reg 8 N i_signal_sample_data_log_addr [7:0] $end
$var reg 1 O i_signal_sample_data_log_done $end
$var reg 8 P o_filtered_signal_sample_addr [7:0] $end
$var reg 1 Q o_filtered_signal_sample_done $end
$var reg 1 R o_filtered_signal_sample_testFailure $end
$var reg 16 S regout [15:0] $end
$var reg 1 T rst $end
$var reg 1 U tb_enb $end
$var reg 1 V tbenb_dly $end
$var reg 6 W write_address [5:0] $end
$var reg 14 X write_address_data_log_addr [13:0] $end
$var reg 1 Y write_address_data_log_done $end
$var reg 1 Z write_done $end
$var reg 14 [ write_done_data_log_addr [13:0] $end
$var reg 1 \ write_done_data_log_done $end
$var reg 1 ] write_enable $end
$var reg 14 ^ write_enable_data_log_addr [13:0] $end
$var reg 1 _ write_enable_data_log_done $end
$var integer 32 ` o_filtered_signal_sample_errCnt [31:0] $end
$scope function abs $end
$var reg 16 a arg [15:0] $end
$upscope $end
$scope module u_lpf_N63_fc1000 $end
$var wire 33 b add_signext [32:0] $end
$var wire 33 c add_signext_1 [32:0] $end
$var wire 1 B clk $end
$var wire 1 C clk_enable $end
$var wire 1 d coeffs_en $end
$var wire 16 e coeffs_in [15:0] $end
$var wire 1 f control_phase_bar $end
$var wire 16 g i_signal_sample [15:0] $end
$var wire 16 h o_filtered_signal_sample [15:0] $end
$var wire 1 T rst $end
$var wire 6 i write_address [5:0] $end
$var wire 1 Z write_done $end
$var wire 1 j write_done_edge_bar $end
$var wire 1 k write_done_short $end
$var wire 1 ] write_enable $end
$var wire 1 l write_done_capture_in $end
$var wire 16 m product_1_mux [15:0] $end
$var wire 31 n product_1 [30:0] $end
$var wire 33 o prod_typeconvert_1 [32:0] $end
$var wire 1 p phase_63 $end
$var wire 1 q phase_0 $end
$var wire 16 r output_typeconvert [15:0] $end
$var wire 32 s mul_temp [31:0] $end
$var wire 16 t inputmux_1 [15:0] $end
$var wire 34 u add_temp [33:0] $end
$var wire 33 v acc_sum_1 [32:0] $end
$var wire 33 w acc_in_1 [32:0] $end
$var reg 33 x acc_final [32:0] $end
$var reg 33 y acc_out_1 [32:0] $end
$var reg 16 z coeffs_in_reg [15:0] $end
$var reg 6 { cur_count [5:0] $end
$var reg 16 | output_register [15:0] $end
$var reg 6 } write_address_reg [5:0] $end
$var reg 1 ~ write_done_capture_reg $end
$var reg 1 !" write_done_edge_reg $end
$var reg 1 "" write_done_reg $end
$var reg 1 #" write_enable_reg $end
$scope begin Acc_reg_1_process $end
$upscope $end
$scope begin Coeffs_Registers_process $end
$upscope $end
$scope begin Coeffs_Shadow_Regs_process $end
$upscope $end
$scope begin Counter_process $end
$upscope $end
$scope begin Delay_Pipeline_process $end
$upscope $end
$scope begin Finalsum_reg_process $end
$upscope $end
$scope begin Input_Register_process $end
$upscope $end
$scope begin Output_Register_process $end
$upscope $end
$scope begin write_done_capture_process $end
$upscope $end
$upscope $end
$scope begin DataHoldRegister_temp_process2 $end
$upscope $end
$scope begin ceout_delayLine $end
$upscope $end
$scope begin slow_clock_enable $end
$upscope $end
$scope begin tb_enb_delay $end
$upscope $end
$scope task coeffs_in_data_log_task $end
$var reg 14 $" addr [13:0] $end
$var reg 1 %" clk $end
$var reg 1 &" done $end
$var reg 1 '" rdenb $end
$var reg 1 (" reset $end
$upscope $end
$scope task i_signal_sample_data_log_task $end
$var reg 8 )" addr [7:0] $end
$var reg 1 *" clk $end
$var reg 1 +" done $end
$var reg 1 ," rdenb $end
$var reg 1 -" reset $end
$upscope $end
$scope task o_filtered_signal_sample_task $end
$var reg 8 ." addr [7:0] $end
$var reg 1 /" clk $end
$var reg 1 0" done $end
$var reg 1 1" rdenb $end
$var reg 1 2" reset $end
$upscope $end
$scope task write_address_data_log_task $end
$var reg 14 3" addr [13:0] $end
$var reg 1 4" clk $end
$var reg 1 5" done $end
$var reg 1 6" rdenb $end
$var reg 1 7" reset $end
$upscope $end
$scope task write_done_data_log_task $end
$var reg 14 8" addr [13:0] $end
$var reg 1 9" clk $end
$var reg 1 :" done $end
$var reg 1 ;" rdenb $end
$var reg 1 <" reset $end
$upscope $end
$scope task write_enable_data_log_task $end
$var reg 14 =" addr [13:0] $end
$var reg 1 >" clk $end
$var reg 1 ?" done $end
$var reg 1 @" rdenb $end
$var reg 1 A" reset $end
$upscope $end
$upscope $end
$enddefinitions $end
$comment Show the parameter values. $end
$dumpall
b1010 @
b101 ?
b10 >
b101 =
b10000010 <
$end
#0
$dumpvars
1A"
x@"
0?"
1>"
b0 ="
1<"
x;"
0:"
19"
b0 8"
17"
x6"
05"
14"
b0 3"
12"
x1"
00"
1/"
b0 ."
1-"
x,"
0+"
1*"
b0 )"
1("
x'"
0&"
1%"
b0 $"
0#"
0""
0!"
0~
b0 }
b0 |
b111111 {
b0 z
b0 y
b0 x
b0 w
b0 v
b0 u
b0 t
b0 s
b0 r
0q
xp
b0 o
b0 n
b0 m
0l
0k
1j
bx i
b0 h
bx g
xf
bx e
0d
b0 c
b0 b
bx a
b0 `
0_
b0 ^
x]
0\
b0 [
xZ
0Y
b0 X
bx W
0V
0U
1T
b0 S
0R
0Q
b0 P
0O
b0 N
bx M
xL
xK
bx J
bx I
bx H
b1 G
0F
b0 E
bx D
xC
1B
0A
b0 ;
b0 :
09
08
07
06
05
04
03
02
01
00
0/
0.
0-
1,
0+
b0 *
b0 )
b1111111111111011 (
b0 '
0&
bx %
0$
0#
0"
0!
$end
#2
1f
0p
0C
b0 %
#5
0B
#10
0,"
0@"
0;"
06"
0'"
01"
1B
#15
0B
#20
1B
#22
1U
0T
#25
0B
#30
1$
1-
19
14
13
12
1!
1.
18
17
16
15
1V
b1111111111111011 H
b0 J
0K
1L
b0 I
0-"
0A"
0<"
07"
0("
02"
1B
#32
0f
1p
1C
b0 M
b0 g
1]
0Z
b0 W
b0 i
b1111111111111011 D
b1111111111111011 e
#35
0B
#40
1f
0$
0-
09
0p
1q
b10 G
b1111111111111011 z
1#"
b0 {
b1111111111110000 (
b1 E
b1 $"
b1 *
b1 X
b1 3"
b1 [
b1 8"
b1 ^
b1 ="
b1 N
b1 )"
1,"
1@"
1;"
16"
1'"
1B
#42
b1111111111110000 D
b1111111111110000 e
b1 W
b1 i
#45
0B
#50
0q
b11 G
b1111111111110000 z
b1 }
b1 {
b1111111111110000 H
b1 J
b1111111111100110 (
b10 E
b10 $"
b10 *
b10 X
b10 3"
b10 [
b10 8"
b10 ^
b10 ="
0,"
1B
#52
b1111111111100110 D
b1111111111100110 e
b10 W
b10 i
#55
0B
#60
b100 G
b1111111111100110 z
b10 }
b10 {
b10 J
b1111111111100110 H
b1111111111011100 (
b11 E
b11 $"
b11 *
b11 X
b11 3"
b11 [
b11 8"
b11 ^
b11 ="
1B
#62
b1111111111011100 D
b1111111111011100 e
b11 W
b11 i
#65
0B
#70
b101 G
b1111111111011100 z
b11 }
b11 {
b1111111111011100 H
b11 J
b1111111111010101 (
b100 E
b100 $"
b100 *
b100 X
b100 3"
b100 [
b100 8"
b100 ^
b100 ="
1B
#72
b1111111111010101 D
b1111111111010101 e
b100 W
b100 i
#75
0B
#80
b110 G
b1111111111010101 z
b100 }
b100 {
b100 J
b1111111111010101 H
b1111111111010011 (
b101 E
b101 $"
b101 *
b101 X
b101 3"
b101 [
b101 8"
b101 ^
b101 ="
1B
#82
b1111111111010011 D
b1111111111010011 e
b101 W
b101 i
#85
0B
#90
b111 G
b1111111111010011 z
b101 }
b101 {
b1111111111010011 H
b101 J
b1111111111011100 (
b110 E
b110 $"
b110 *
b110 X
b110 3"
b110 [
b110 8"
b110 ^
b110 ="
1B
#92
b1111111111011100 D
b1111111111011100 e
b110 W
b110 i
#95
0B
#100
b1000 G
b1111111111011100 z
b110 }
b110 {
b110 J
b1111111111011100 H
b1111111111110000 (
b111 E
b111 $"
b111 *
b111 X
b111 3"
b111 [
b111 8"
b111 ^
b111 ="
1B
#102
b1111111111110000 D
b1111111111110000 e
b111 W
b111 i
#105
0B
#110
b1001 G
b1111111111110000 z
b111 }
b111 {
b1111111111110000 H
b111 J
b10011 (
b1000 E
b1000 $"
b1000 *
b1000 X
b1000 3"
b1000 [
b1000 8"
b1000 ^
b1000 ="
1B
#112
b10011 D
b10011 e
b1000 W
b1000 i
#115
0B
#120
b1010 G
b10011 z
b1000 }
b1000 {
b1000 J
b10011 H
b1000001 (
b1001 E
b1001 $"
b1001 *
b1001 X
b1001 3"
b1001 [
b1001 8"
b1001 ^
b1001 ="
1B
#122
b1000001 D
b1000001 e
b1001 W
b1001 i
#125
0B
#130
b1011 G
b1000001 z
b1001 }
b1001 {
b1000001 H
b1001 J
b1110101 (
b1010 E
b1010 $"
b1010 *
b1010 X
b1010 3"
b1010 [
b1010 8"
b1010 ^
b1010 ="
1B
#132
b1110101 D
b1110101 e
b1010 W
b1010 i
#135
0B
#140
b1100 G
b1110101 z
b1010 }
b1010 {
b1010 J
b1110101 H
b10100101 (
b1011 E
b1011 $"
b1011 *
b1011 X
b1011 3"
b1011 [
b1011 8"
b1011 ^
b1011 ="
1B
#142
b10100101 D
b10100101 e
b1011 W
b1011 i
#145
0B
#150
b1101 G
b10100101 z
b1011 }
b1011 {
b10100101 H
b1011 J
b11000100 (
b1100 E
b1100 $"
b1100 *
b1100 X
b1100 3"
b1100 [
b1100 8"
b1100 ^
b1100 ="
1B
#152
b11000100 D
b11000100 e
b1100 W
b1100 i
#155
0B
#160
b1110 G
b11000100 z
b1100 }
b1100 {
b1100 J
b11000100 H
b11000011 (
b1101 E
b1101 $"
b1101 *
b1101 X
b1101 3"
b1101 [
b1101 8"
b1101 ^
b1101 ="
1B
#162
b11000011 D
b11000011 e
b1101 W
b1101 i
#165
0B
#170
b1111 G
b11000011 z
b1101 }
b1101 {
b11000011 H
b1101 J
b10011001 (
b1110 E
b1110 $"
b1110 *
b1110 X
b1110 3"
b1110 [
b1110 8"
b1110 ^
b1110 ="
1B
#172
b10011001 D
b10011001 e
b1110 W
b1110 i
#175
0B
#180
b10000 G
b10011001 z
b1110 }
b1110 {
b1110 J
b10011001 H
b111111 (
b1111 E
b1111 $"
b1111 *
b1111 X
b1111 3"
b1111 [
b1111 8"
b1111 ^
b1111 ="
1B
#182
b111111 D
b111111 e
b1111 W
b1111 i
#185
0B
#190
b10001 G
b111111 z
b1111 }
b1111 {
b111111 H
b1111 J
b1111111110110111 (
b10000 E
b10000 $"
b10000 *
b10000 X
b10000 3"
b10000 [
b10000 8"
b10000 ^
b10000 ="
1B
#192
b1111111110110111 D
b1111111110110111 e
b10000 W
b10000 i
#195
0B
#200
b10010 G
b1111111110110111 z
b10000 }
b10000 {
b10000 J
b1111111110110111 H
b1111111100010001 (
b10001 E
b10001 $"
b10001 *
b10001 X
b10001 3"
b10001 [
b10001 8"
b10001 ^
b10001 ="
1B
#202
b1111111100010001 D
b1111111100010001 e
b10001 W
b10001 i
#205
0B
#210
b10011 G
b1111111100010001 z
b10001 }
b10001 {
b1111111100010001 H
b10001 J
b1111111001100010 (
b10010 E
b10010 $"
b10010 *
b10010 X
b10010 3"
b10010 [
b10010 8"
b10010 ^
b10010 ="
1B
#212
b1111111001100010 D
b1111111001100010 e
b10010 W
b10010 i
#215
0B
#220
b10100 G
b1111111001100010 z
b10010 }
b10010 {
b10010 J
b1111111001100010 H
b1111110111001101 (
b10011 E
b10011 $"
b10011 *
b10011 X
b10011 3"
b10011 [
b10011 8"
b10011 ^
b10011 ="
1B
#222
b1111110111001101 D
b1111110111001101 e
b10011 W
b10011 i
#225
0B
#230
b10101 G
b1111110111001101 z
b10011 }
b10011 {
b1111110111001101 H
b10011 J
b1111110101110110 (
b10100 E
b10100 $"
b10100 *
b10100 X
b10100 3"
b10100 [
b10100 8"
b10100 ^
b10100 ="
1B
#232
b1111110101110110 D
b1111110101110110 e
b10100 W
b10100 i
#235
0B
#240
b10110 G
b1111110101110110 z
b10100 }
b10100 {
b10100 J
b1111110101110110 H
b1111110110000010 (
b10101 E
b10101 $"
b10101 *
b10101 X
b10101 3"
b10101 [
b10101 8"
b10101 ^
b10101 ="
1B
#242
b1111110110000010 D
b1111110110000010 e
b10101 W
b10101 i
#245
0B
#250
b10111 G
b1111110110000010 z
b10101 }
b10101 {
b1111110110000010 H
b10101 J
b1111111000010010 (
b10110 E
b10110 $"
b10110 *
b10110 X
b10110 3"
b10110 [
b10110 8"
b10110 ^
b10110 ="
1B
#252
b1111111000010010 D
b1111111000010010 e
b10110 W
b10110 i
#255
0B
#260
b11000 G
b1111111000010010 z
b10110 }
b10110 {
b10110 J
b1111111000010010 H
b1111111100110101 (
b10111 E
b10111 $"
b10111 *
b10111 X
b10111 3"
b10111 [
b10111 8"
b10111 ^
b10111 ="
1B
#262
b1111111100110101 D
b1111111100110101 e
b10111 W
b10111 i
#265
0B
#270
b11001 G
b1111111100110101 z
b10111 }
b10111 {
b1111111100110101 H
b10111 J
b11101111 (
b11000 E
b11000 $"
b11000 *
b11000 X
b11000 3"
b11000 [
b11000 8"
b11000 ^
b11000 ="
1B
#272
b11101111 D
b11101111 e
b11000 W
b11000 i
#275
0B
#280
b11010 G
b11101111 z
b11000 }
b11000 {
b11000 J
b11101111 H
b1100101010 (
b11001 E
b11001 $"
b11001 *
b11001 X
b11001 3"
b11001 [
b11001 8"
b11001 ^
b11001 ="
1B
#282
b1100101010 D
b1100101010 e
b11001 W
b11001 i
#285
0B
#290
b11011 G
b1100101010 z
b11001 }
b11001 {
b1100101010 H
b11001 J
b10111000010 (
b11010 E
b11010 $"
b11010 *
b11010 X
b11010 3"
b11010 [
b11010 8"
b11010 ^
b11010 ="
1B
#292
b10111000010 D
b10111000010 e
b11010 W
b11010 i
#295
0B
#300
b11100 G
b10111000010 z
b11010 }
b11010 {
b11010 J
b10111000010 H
b100001111111 (
b11011 E
b11011 $"
b11011 *
b11011 X
b11011 3"
b11011 [
b11011 8"
b11011 ^
b11011 ="
1B
#302
b100001111111 D
b100001111111 e
b11011 W
b11011 i
#305
0B
#310
b11101 G
b100001111111 z
b11011 }
b11011 {
b100001111111 H
b11011 J
b101100100001 (
b11100 E
b11100 $"
b11100 *
b11100 X
b11100 3"
b11100 [
b11100 8"
b11100 ^
b11100 ="
1B
#312
b101100100001 D
b101100100001 e
b11100 W
b11100 i
#315
0B
#320
b11110 G
b101100100001 z
b11100 }
b11100 {
b11100 J
b101100100001 H
b110101100101 (
b11101 E
b11101 $"
b11101 *
b11101 X
b11101 3"
b11101 [
b11101 8"
b11101 ^
b11101 ="
1B
#322
b110101100101 D
b110101100101 e
b11101 W
b11101 i
#325
0B
#330
b11111 G
b110101100101 z
b11101 }
b11101 {
b110101100101 H
b11101 J
b111100001101 (
b11110 E
b11110 $"
b11110 *
b11110 X
b11110 3"
b11110 [
b11110 8"
b11110 ^
b11110 ="
1B
#332
b111100001101 D
b111100001101 e
b11110 W
b11110 i
#335
0B
#340
b100000 G
b111100001101 z
b11110 }
b11110 {
b11110 J
b111100001101 H
b111111101110 (
b11111 E
b11111 $"
b11111 *
b11111 X
b11111 3"
b11111 [
b11111 8"
b11111 ^
b11111 ="
1B
#342
b111111101110 D
b111111101110 e
b11111 W
b11111 i
#345
0B
#350
b100001 G
b111111101110 z
b11111 }
b11111 {
b111111101110 H
b11111 J
b100000 E
b100000 $"
b100000 *
b100000 X
b100000 3"
b100000 [
b100000 8"
b100000 ^
b100000 ="
1B
#352
b100000 W
b100000 i
#355
0B
#360
b100010 G
b100000 }
b100000 {
b100000 J
b111100001101 (
b100001 E
b100001 $"
b100001 *
b100001 X
b100001 3"
b100001 [
b100001 8"
b100001 ^
b100001 ="
1B
#362
b111100001101 D
b111100001101 e
b100001 W
b100001 i
#365
0B
#370
b100011 G
b111100001101 z
b100001 }
b100001 {
b111100001101 H
b100001 J
b110101100101 (
b100010 E
b100010 $"
b100010 *
b100010 X
b100010 3"
b100010 [
b100010 8"
b100010 ^
b100010 ="
1B
#372
b110101100101 D
b110101100101 e
b100010 W
b100010 i
#375
0B
#380
b100100 G
b110101100101 z
b100010 }
b100010 {
b100010 J
b110101100101 H
b101100100001 (
b100011 E
b100011 $"
b100011 *
b100011 X
b100011 3"
b100011 [
b100011 8"
b100011 ^
b100011 ="
1B
#382
b101100100001 D
b101100100001 e
b100011 W
b100011 i
#385
0B
#390
b100101 G
b101100100001 z
b100011 }
b100011 {
b101100100001 H
b100011 J
b100001111111 (
b100100 E
b100100 $"
b100100 *
b100100 X
b100100 3"
b100100 [
b100100 8"
b100100 ^
b100100 ="
1B
#392
b100001111111 D
b100001111111 e
b100100 W
b100100 i
#395
0B
#400
b100110 G
b100001111111 z
b100100 }
b100100 {
b100100 J
b100001111111 H
b10111000010 (
b100101 E
b100101 $"
b100101 *
b100101 X
b100101 3"
b100101 [
b100101 8"
b100101 ^
b100101 ="
1B
#402
b10111000010 D
b10111000010 e
b100101 W
b100101 i
#405
0B
#410
b100111 G
b10111000010 z
b100101 }
b100101 {
b10111000010 H
b100101 J
b1100101010 (
b100110 E
b100110 $"
b100110 *
b100110 X
b100110 3"
b100110 [
b100110 8"
b100110 ^
b100110 ="
1B
#412
b1100101010 D
b1100101010 e
b100110 W
b100110 i
#415
0B
#420
b101000 G
b1100101010 z
b100110 }
b100110 {
b100110 J
b1100101010 H
b11101111 (
b100111 E
b100111 $"
b100111 *
b100111 X
b100111 3"
b100111 [
b100111 8"
b100111 ^
b100111 ="
1B
#422
b11101111 D
b11101111 e
b100111 W
b100111 i
#425
0B
#430
b101001 G
b11101111 z
b100111 }
b100111 {
b11101111 H
b100111 J
b1111111100110101 (
b101000 E
b101000 $"
b101000 *
b101000 X
b101000 3"
b101000 [
b101000 8"
b101000 ^
b101000 ="
1B
#432
b1111111100110101 D
b1111111100110101 e
b101000 W
b101000 i
#435
0B
#440
b101010 G
b1111111100110101 z
b101000 }
b101000 {
b101000 J
b1111111100110101 H
b1111111000010010 (
b101001 E
b101001 $"
b101001 *
b101001 X
b101001 3"
b101001 [
b101001 8"
b101001 ^
b101001 ="
1B
#442
b1111111000010010 D
b1111111000010010 e
b101001 W
b101001 i
#445
0B
#450
b101011 G
b1111111000010010 z
b101001 }
b101001 {
b1111111000010010 H
b101001 J
b1111110110000010 (
b101010 E
b101010 $"
b101010 *
b101010 X
b101010 3"
b101010 [
b101010 8"
b101010 ^
b101010 ="
1B
#452
b1111110110000010 D
b1111110110000010 e
b101010 W
b101010 i
#455
0B
#460
b101100 G
b1111110110000010 z
b101010 }
b101010 {
b101010 J
b1111110110000010 H
b1111110101110110 (
b101011 E
b101011 $"
b101011 *
b101011 X
b101011 3"
b101011 [
b101011 8"
b101011 ^
b101011 ="
1B
#462
b1111110101110110 D
b1111110101110110 e
b101011 W
b101011 i
#465
0B
#470
b101101 G
b1111110101110110 z
b101011 }
b101011 {
b1111110101110110 H
b101011 J
b1111110111001101 (
b101100 E
b101100 $"
b101100 *
b101100 X
b101100 3"
b101100 [
b101100 8"
b101100 ^
b101100 ="
1B
#472
b1111110111001101 D
b1111110111001101 e
b101100 W
b101100 i
#475
0B
#480
b101110 G
b1111110111001101 z
b101100 }
b101100 {
b101100 J
b1111110111001101 H
b1111111001100010 (
b101101 E
b101101 $"
b101101 *
b101101 X
b101101 3"
b101101 [
b101101 8"
b101101 ^
b101101 ="
1B
#482
b1111111001100010 D
b1111111001100010 e
b101101 W
b101101 i
#485
0B
#490
b101111 G
b1111111001100010 z
b101101 }
b101101 {
b1111111001100010 H
b101101 J
b1111111100010001 (
b101110 E
b101110 $"
b101110 *
b101110 X
b101110 3"
b101110 [
b101110 8"
b101110 ^
b101110 ="
1B
#492
b1111111100010001 D
b1111111100010001 e
b101110 W
b101110 i
#495
0B
#500
b110000 G
b1111111100010001 z
b101110 }
b101110 {
b101110 J
b1111111100010001 H
b1111111110110111 (
b101111 E
b101111 $"
b101111 *
b101111 X
b101111 3"
b101111 [
b101111 8"
b101111 ^
b101111 ="
1B
#502
b1111111110110111 D
b1111111110110111 e
b101111 W
b101111 i
#505
0B
#510
b110001 G
b1111111110110111 z
b101111 }
b101111 {
b1111111110110111 H
b101111 J
b111111 (
b110000 E
b110000 $"
b110000 *
b110000 X
b110000 3"
b110000 [
b110000 8"
b110000 ^
b110000 ="
1B
#512
b111111 D
b111111 e
b110000 W
b110000 i
#515
0B
#520
b110010 G
b111111 z
b110000 }
b110000 {
b110000 J
b111111 H
b10011001 (
b110001 E
b110001 $"
b110001 *
b110001 X
b110001 3"
b110001 [
b110001 8"
b110001 ^
b110001 ="
1B
#522
b10011001 D
b10011001 e
b110001 W
b110001 i
#525
0B
#530
b110011 G
b10011001 z
b110001 }
b110001 {
b10011001 H
b110001 J
b11000011 (
b110010 E
b110010 $"
b110010 *
b110010 X
b110010 3"
b110010 [
b110010 8"
b110010 ^
b110010 ="
1B
#532
b11000011 D
b11000011 e
b110010 W
b110010 i
#535
0B
#540
b110100 G
b11000011 z
b110010 }
b110010 {
b110010 J
b11000011 H
b11000100 (
b110011 E
b110011 $"
b110011 *
b110011 X
b110011 3"
b110011 [
b110011 8"
b110011 ^
b110011 ="
1B
#542
b11000100 D
b11000100 e
b110011 W
b110011 i
#545
0B
#550
b110101 G
b11000100 z
b110011 }
b110011 {
b11000100 H
b110011 J
b10100101 (
b110100 E
b110100 $"
b110100 *
b110100 X
b110100 3"
b110100 [
b110100 8"
b110100 ^
b110100 ="
1B
#552
b10100101 D
b10100101 e
b110100 W
b110100 i
#555
0B
#560
b110110 G
b10100101 z
b110100 }
b110100 {
b110100 J
b10100101 H
b1110101 (
b110101 E
b110101 $"
b110101 *
b110101 X
b110101 3"
b110101 [
b110101 8"
b110101 ^
b110101 ="
1B
#562
b1110101 D
b1110101 e
b110101 W
b110101 i
#565
0B
#570
b110111 G
b1110101 z
b110101 }
b110101 {
b1110101 H
b110101 J
b1000001 (
b110110 E
b110110 $"
b110110 *
b110110 X
b110110 3"
b110110 [
b110110 8"
b110110 ^
b110110 ="
1B
#572
b1000001 D
b1000001 e
b110110 W
b110110 i
#575
0B
#580
b111000 G
b1000001 z
b110110 }
b110110 {
b110110 J
b1000001 H
b10011 (
b110111 E
b110111 $"
b110111 *
b110111 X
b110111 3"
b110111 [
b110111 8"
b110111 ^
b110111 ="
1B
#582
b10011 D
b10011 e
b110111 W
b110111 i
#585
0B
#590
b111001 G
b10011 z
b110111 }
b110111 {
b10011 H
b110111 J
b1111111111110000 (
b111000 E
b111000 $"
b111000 *
b111000 X
b111000 3"
b111000 [
b111000 8"
b111000 ^
b111000 ="
1B
#592
b1111111111110000 D
b1111111111110000 e
b111000 W
b111000 i
#595
0B
#600
b111010 G
b1111111111110000 z
b111000 }
b111000 {
b111000 J
b1111111111110000 H
b1111111111011100 (
b111001 E
b111001 $"
b111001 *
b111001 X
b111001 3"
b111001 [
b111001 8"
b111001 ^
b111001 ="
1B
#602
b1111111111011100 D
b1111111111011100 e
b111001 W
b111001 i
#605
0B
#610
b111011 G
b1111111111011100 z
b111001 }
b111001 {
b1111111111011100 H
b111001 J
b1111111111010011 (
b111010 E
b111010 $"
b111010 *
b111010 X
b111010 3"
b111010 [
b111010 8"
b111010 ^
b111010 ="
1B
#612
b1111111111010011 D
b1111111111010011 e
b111010 W
b111010 i
#615
0B
#620
b111100 G
b1111111111010011 z
b111010 }
b111010 {
b111010 J
b1111111111010011 H
b1111111111010101 (
b111011 E
b111011 $"
b111011 *
b111011 X
b111011 3"
b111011 [
b111011 8"
b111011 ^
b111011 ="
1B
#622
b1111111111010101 D
b1111111111010101 e
b111011 W
b111011 i
#625
0B
#630
b111101 G
b1111111111010101 z
b111011 }
b111011 {
b1111111111010101 H
b111011 J
b1111111111011100 (
b111100 E
b111100 $"
b111100 *
b111100 X
b111100 3"
b111100 [
b111100 8"
b111100 ^
b111100 ="
1B
#632
b1111111111011100 D
b1111111111011100 e
b111100 W
b111100 i
#635
0B
#640
b111110 G
b1111111111011100 z
b111100 }
b111100 {
b111100 J
b1111111111011100 H
b1111111111100110 (
b111101 E
b111101 $"
b111101 *
b111101 X
b111101 3"
b111101 [
b111101 8"
b111101 ^
b111101 ="
1B
#642
b1111111111100110 D
b1111111111100110 e
b111101 W
b111101 i
#645
0B
#650
b111111 G
b1111111111100110 z
b111101 }
b111101 {
b1111111111100110 H
b111101 J
b1111111111110000 (
b111110 E
b111110 $"
b111110 *
b111110 X
b111110 3"
b111110 [
b111110 8"
b111110 ^
b111110 ="
1B
#652
b1111111111110000 D
b1111111111110000 e
b111110 W
b111110 i
#655
0B
#660
b0 G
b1111111111110000 z
b111110 }
b111110 {
b111110 J
b1111111111110000 H
b1111111111111011 (
b111111 E
b111111 $"
b111111 *
b111111 X
b111111 3"
b111111 [
b111111 8"
b111111 ^
b111111 ="
1B
#662
b1111111111111011 D
b1111111111111011 e
b111111 W
b111111 i
#665
0B
#670
0f
1$
1-
19
1p
b1 G
b1111111111111011 z
b111111 }
b111111 {
b1111111111111011 H
b111111 J
b0 (
b1000000 E
b1000000 $"
b0 *
b1000000 X
b1000000 3"
1+
b1000000 [
b1000000 8"
0,
b1000000 ^
b1000000 ="
1B
#672
b0 D
b0 e
b0 W
b0 i
1Z
0]
#675
0B
#680
1f
0$
0-
09
1l
0p
1q
1k
b10 G
b0 z
b0 }
1""
0#"
b0 {
0L
1K
b0 J
b0 H
b1000001 E
b1000001 $"
b1000001 X
b1000001 3"
0+
b1000001 [
b1000001 8"
b1000001 ^
b1000001 ="
b111111111111111 )
b10 N
b10 )"
1,"
1B
#682
0Z
b0 M
b0 g
#685
0B
#690
0q
0j
0k
b11 G
1!"
1~
0""
b1 {
0K
b111111111111111 I
b1000010 E
b1000010 $"
b1000010 X
b1000010 3"
b1000010 [
b1000010 8"
b1000010 ^
b1000010 ="
0,"
1B
#695
0B
#700
1j
b100 G
0!"
b10 {
b1000011 E
b1000011 $"
b1000011 X
b1000011 3"
b1000011 [
b1000011 8"
b1000011 ^
b1000011 ="
1B
#705
0B
#710
b101 G
b11 {
b1000100 E
b1000100 $"
b1000100 X
b1000100 3"
b1000100 [
b1000100 8"
b1000100 ^
b1000100 ="
1B
#715
0B
#720
b110 G
b100 {
b1000101 E
b1000101 $"
b1000101 X
b1000101 3"
b1000101 [
b1000101 8"
b1000101 ^
b1000101 ="
1B
#725
0B
#730
b111 G
b101 {
b1000110 E
b1000110 $"
b1000110 X
b1000110 3"
b1000110 [
b1000110 8"
b1000110 ^
b1000110 ="
1B
#735
0B
#740
b1000 G
b110 {
b1000111 E
b1000111 $"
b1000111 X
b1000111 3"
b1000111 [
b1000111 8"
b1000111 ^
b1000111 ="
1B
#745
0B
#750
b1001 G
b111 {
b1001000 E
b1001000 $"
b1001000 X
b1001000 3"
b1001000 [
b1001000 8"
b1001000 ^
b1001000 ="
1B
#755
0B
#760
b1010 G
b1000 {
b1001001 E
b1001001 $"
b1001001 X
b1001001 3"
b1001001 [
b1001001 8"
b1001001 ^
b1001001 ="
1B
#765
0B
#770
b1011 G
b1001 {
b1001010 E
b1001010 $"
b1001010 X
b1001010 3"
b1001010 [
b1001010 8"
b1001010 ^
b1001010 ="
1B
#775
0B
#780
b1100 G
b1010 {
b1001011 E
b1001011 $"
b1001011 X
b1001011 3"
b1001011 [
b1001011 8"
b1001011 ^
b1001011 ="
1B
#785
0B
#790
b1101 G
b1011 {
b1001100 E
b1001100 $"
b1001100 X
b1001100 3"
b1001100 [
b1001100 8"
b1001100 ^
b1001100 ="
1B
#795
0B
#800
b1110 G
b1100 {
b1001101 E
b1001101 $"
b1001101 X
b1001101 3"
b1001101 [
b1001101 8"
b1001101 ^
b1001101 ="
1B
#805
0B
